Data/HeatCapacity/Most recen pulse data/tek0000.csv

Model,MDO3014
Firmware Version,1.20

Waveform Type,ANALOG,,
Point Format,Y,,
Horizontal Units,s,,
Horizontal Scale,0.0004,,
Horizontal Delay,0.001608,,
Sample Interval,4e-07,,
Record Length,10000,,
Gating,0.0% to 100.0%,,
Probe Attenuation,1,1,1
Vertical Units,V,V,V
Vertical Offset,0,0,0
Vertical Scale,2,5,5
Vertical Position,-2.44,-0.16,-0.94
,,,
,,,
,,,
Label,,,
TIME,CH1,CH2,CH3
-3.920000e-04,0,0,-0.1
-3.916000e-04,-0.08,0,0.1
-3.912000e-04,-0.08,0,-0.1
-3.908000e-04,0,0,0.1
-3.904000e-04,0,-0.2,0.1
-3.900000e-04,0,0,0.1
-3.896000e-04,0,0,0.1
-3.892000e-04,-0.08,0,0.1
-3.888000e-04,-0.08,0,0.1
-3.884000e-04,0,0,0.1
-3.880000e-04,0.08,0,0.1
-3.876000e-04,-0.08,-0.2,0.1
-3.872000e-04,-0.08,0,0.1
-3.868000e-04,0,0,-0.1
-3.864000e-04,0.08,0,0.1
-3.860000e-04,0,0,0.1
-3.856000e-04,-0.08,-0.2,-0.1
-3.852000e-04,0,0.2,0.1
-3.848000e-04,0,0,0.1
-3.844000e-04,-0.08,0,-0.1
-3.840000e-04,0,0,0.1
-3.836000e-04,0,-0.2,-0.1
-3.832000e-04,-0.08,-0.2,0.1
-3.828000e-04,0,0,0.1
-3.824000e-04,-0.08,0.2,-0.1
-3.820000e-04,0,0,0.1
-3.816000e-04,0,0,0.1
-3.812000e-04,-0.08,0,-0.1
-3.808000e-04,0,0,0.3
-3.804000e-04,0,-0.2,-0.1
-3.800000e-04,-0.08,-0.4,0.1
-3.796000e-04,0,0,0.1
-3.792000e-04,0.08,0.2,0.1
-3.788000e-04,0,0,0.1
-3.784000e-04,0,0,0.1
-3.780000e-04,-0.08,-0.2,0.1
-3.776000e-04,0,0,0.1
-3.772000e-04,0,-0.2,0.1
-3.768000e-04,0.08,-0.2,0.1
-3.764000e-04,0.08,0,0.1
-3.760000e-04,0,0.2,0.1
-3.756000e-04,0,0,-0.1
-3.752000e-04,-0.08,-0.2,0.1
-3.748000e-04,0,-0.2,0.1
-3.744000e-04,-0.08,-0.2,-0.1
-3.740000e-04,0,0,-0.1
-3.736000e-04,0,0,-0.1
-3.732000e-04,-0.08,0,-0.1
-3.728000e-04,0,0.2,-0.1
-3.724000e-04,0,-0.2,0.1
-3.720000e-04,-0.08,0,0.1
-3.716000e-04,0,0,-0.1
-3.712000e-04,0,-0.2,-0.1
-3.708000e-04,0,0,-0.1
-3.704000e-04,0,0,0.1
-3.700000e-04,0,0,-0.1
-3.696000e-04,0,0,0.3
-3.692000e-04,-0.08,0.2,-0.1
-3.688000e-04,0,-0.2,-0.1
-3.684000e-04,-0.08,0,0.1
-3.680000e-04,0,0,0.1
-3.676000e-04,-0.08,0,0.1
-3.672000e-04,0,0,0.1
-3.668000e-04,-0.08,0.2,0.1
-3.664000e-04,0,0,0.1
-3.660000e-04,-0.08,0,0.1
-3.656000e-04,0,0,0.1
-3.652000e-04,0,0,0.1
-3.648000e-04,-0.08,0,-0.1
-3.644000e-04,-0.08,0,-0.3
-3.640000e-04,0,0,0.3
-3.636000e-04,-0.08,0,-0.1
-3.632000e-04,0,0,0.1
-3.628000e-04,-0.08,-0.2,-0.1
-3.624000e-04,0,0,-0.1
-3.620000e-04,0,0,-0.1
-3.616000e-04,-0.08,-0.2,0.1
-3.612000e-04,0.08,0,-0.1
-3.608000e-04,-0.08,-0.2,-0.1
-3.604000e-04,0,0,-0.1
-3.600000e-04,0,0,0.1
-3.596000e-04,-0.08,-0.2,-0.1
-3.592000e-04,-0.08,0,-0.1
-3.588000e-04,0,-0.2,0.1
-3.584000e-04,-0.08,0.2,0.1
-3.580000e-04,0,-0.2,-0.1
-3.576000e-04,0,-0.2,-0.1
-3.572000e-04,0,-0.2,0.1
-3.568000e-04,0.08,0,-0.1
-3.564000e-04,-0.08,-0.2,-0.1
-3.560000e-04,0,-0.2,0.1
-3.556000e-04,0,0,0.1
-3.552000e-04,-0.08,0,0.1
-3.548000e-04,0,0.2,0.1
-3.544000e-04,-0.08,-0.2,-0.1
-3.540000e-04,0,-0.2,-0.1
-3.536000e-04,-0.08,0,-0.1
-3.532000e-04,0,0,-0.1
-3.528000e-04,0,0,-0.1
-3.524000e-04,0,0,0.1
-3.520000e-04,-0.08,0,-0.1
-3.516000e-04,-0.08,0,-0.1
-3.512000e-04,0,0,-0.1
-3.508000e-04,-0.08,-0.2,0.1
-3.504000e-04,-0.08,0,-0.1
-3.500000e-04,0,0,0.1
-3.496000e-04,-0.08,0,0.1
-3.492000e-04,0,0,-0.1
-3.488000e-04,0.08,0,-0.3
-3.484000e-04,0,0,-0.1
-3.480000e-04,-0.08,0,-0.1
-3.476000e-04,0,0,0.1
-3.472000e-04,-0.08,0,-0.1
-3.468000e-04,-0.08,0.2,-0.1
-3.464000e-04,-0.08,-0.2,0.1
-3.460000e-04,0,0,0.1
-3.456000e-04,0,0,-0.1
-3.452000e-04,0,0,0.1
-3.448000e-04,-0.08,0,0.1
-3.444000e-04,0,0,-0.1
-3.440000e-04,-0.08,0,0.1
-3.436000e-04,0,-0.2,-0.1
-3.432000e-04,0.08,0,0.1
-3.428000e-04,-0.08,0,0.1
-3.424000e-04,0.08,0,-0.1
-3.420000e-04,0,-0.2,-0.1
-3.416000e-04,-0.08,0,0.1
-3.412000e-04,-0.08,0.2,0.1
-3.408000e-04,0,0,0.1
-3.404000e-04,-0.08,0.2,0.1
-3.400000e-04,-0.08,0,-0.1
-3.396000e-04,0,-0.2,0.1
-3.392000e-04,0,0,0.1
-3.388000e-04,0,0,0.1
-3.384000e-04,0,0,-0.1
-3.380000e-04,0,-0.2,-0.1
-3.376000e-04,0,-0.2,-0.1
-3.372000e-04,0,0.2,-0.1
-3.368000e-04,0,0,-0.1
-3.364000e-04,-0.08,0,-0.1
-3.360000e-04,-0.08,0,-0.1
-3.356000e-04,-0.08,0,0.1
-3.352000e-04,-0.08,0,0.3
-3.348000e-04,0,0,0.1
-3.344000e-04,0.08,0,0.1
-3.340000e-04,0,0,0.1
-3.336000e-04,-0.16,-0.2,0.1
-3.332000e-04,0,0.2,0.3
-3.328000e-04,-0.08,0,0.1
-3.324000e-04,0,0.2,0.1
-3.320000e-04,0,0,-0.1
-3.316000e-04,-0.08,-0.2,-0.1
-3.312000e-04,0,0,-0.1
-3.308000e-04,0,-0.2,0.1
-3.304000e-04,0,0,0.1
-3.300000e-04,0,0,-0.1
-3.296000e-04,0,0,-0.1
-3.292000e-04,0,0,-0.1
-3.288000e-04,0,0,0.1
-3.284000e-04,-0.08,0,-0.1
-3.280000e-04,-0.08,0,-0.1
-3.276000e-04,0,-0.2,-0.1
-3.272000e-04,-0.08,0,0.1
-3.268000e-04,0,0,0.3
-3.264000e-04,0,0,0.1
-3.260000e-04,0,0,0.1
-3.256000e-04,0,0,-0.1
-3.252000e-04,0,0,-0.1
-3.248000e-04,0,0,0.1
-3.244000e-04,0.08,-0.2,0.1
-3.240000e-04,0,0,0.1
-3.236000e-04,0,-0.2,-0.1
-3.232000e-04,-0.08,0,0.3
-3.228000e-04,-0.08,0,-0.1
-3.224000e-04,-0.08,0.2,0.1
-3.220000e-04,-0.08,-0.2,0.1
-3.216000e-04,0,-0.2,0.1
-3.212000e-04,-0.08,-0.2,0.1
-3.208000e-04,0,0,0.1
-3.204000e-04,0,0,0.1
-3.200000e-04,-0.08,0,0.1
-3.196000e-04,0.08,0.2,0.1
-3.192000e-04,0,0.2,0.1
-3.188000e-04,0,0,0.1
-3.184000e-04,0,-0.2,0.1
-3.180000e-04,0,0,0.1
-3.176000e-04,0,0,-0.1
-3.172000e-04,0,0,0.1
-3.168000e-04,-0.08,0,-0.1
-3.164000e-04,0,0,0.1
-3.160000e-04,-0.08,0,-0.1
-3.156000e-04,-0.08,0,0.1
-3.152000e-04,0,-0.2,-0.1
-3.148000e-04,0,-0.2,-0.1
-3.144000e-04,-0.08,-0.2,-0.1
-3.140000e-04,-0.08,0,0.3
-3.136000e-04,0,-0.2,0.1
-3.132000e-04,0,-0.2,-0.1
-3.128000e-04,0,0,0.1
-3.124000e-04,-0.08,0.2,-0.1
-3.120000e-04,-0.08,0,0.1
-3.116000e-04,-0.08,-0.2,-0.1
-3.112000e-04,-0.08,0,-0.1
-3.108000e-04,-0.08,-0.2,0.1
-3.104000e-04,0,0,0.1
-3.100000e-04,0,0,0.1
-3.096000e-04,0,0.2,0.1
-3.092000e-04,0,-0.2,-0.1
-3.088000e-04,0,0,0.3
-3.084000e-04,0,-0.2,0.1
-3.080000e-04,-0.08,-0.2,-0.1
-3.076000e-04,-0.08,0.2,0.1
-3.072000e-04,-0.08,-0.2,-0.1
-3.068000e-04,0,-0.2,0.1
-3.064000e-04,0,0,-0.1
-3.060000e-04,0,0,-0.1
-3.056000e-04,0,-0.2,0.1
-3.052000e-04,-0.08,0.2,-0.1
-3.048000e-04,0,0,0.3
-3.044000e-04,0,0,0.1
-3.040000e-04,-0.08,0,-0.1
-3.036000e-04,-0.08,0,-0.1
-3.032000e-04,0,0,0.1
-3.028000e-04,0,-0.2,0.1
-3.024000e-04,0,0,0.1
-3.020000e-04,0,0,-0.1
-3.016000e-04,0,0,-0.1
-3.012000e-04,0,0,0.1
-3.008000e-04,-0.08,0,0.1
-3.004000e-04,0,0,-0.1
-3.000000e-04,0,-0.2,-0.1
-2.996000e-04,-0.08,0,-0.1
-2.992000e-04,-0.08,0,-0.1
-2.988000e-04,0,-0.2,-0.1
-2.984000e-04,-0.08,-0.2,0.1
-2.980000e-04,0,-0.2,0.1
-2.976000e-04,-0.08,-0.2,-0.1
-2.972000e-04,0,-0.2,0.1
-2.968000e-04,-0.08,0,0.1
-2.964000e-04,0,0,0.1
-2.960000e-04,0,0,-0.1
-2.956000e-04,-0.08,-0.2,0.1
-2.952000e-04,-0.08,-0.2,0.1
-2.948000e-04,0,0,0.1
-2.944000e-04,0,0,0.1
-2.940000e-04,-0.08,0,0.1
-2.936000e-04,0,-0.2,0.1
-2.932000e-04,0,0,0.1
-2.928000e-04,0,-0.2,-0.3
-2.924000e-04,-0.08,0,-0.1
-2.920000e-04,0,0,0.1
-2.916000e-04,-0.08,0.2,-0.1
-2.912000e-04,0,0,-0.3
-2.908000e-04,0,0,0.1
-2.904000e-04,-0.08,0,0.3
-2.900000e-04,-0.08,-0.2,0.1
-2.896000e-04,-0.08,-0.2,0.1
-2.892000e-04,0,0,0.1
-2.888000e-04,0,0.2,-0.1
-2.884000e-04,-0.08,0,-0.1
-2.880000e-04,-0.08,-0.2,-0.3
-2.876000e-04,-0.08,0,0.1
-2.872000e-04,0,0,0.1
-2.868000e-04,-0.08,-0.2,0.1
-2.864000e-04,-0.08,0,0.1
-2.860000e-04,0.08,0,0.1
-2.856000e-04,0,-0.2,-0.1
-2.852000e-04,-0.08,0,0.1
-2.848000e-04,0,-0.2,0.1
-2.844000e-04,-0.08,0,0.1
-2.840000e-04,-0.08,-0.2,0.1
-2.836000e-04,0,0,-0.1
-2.832000e-04,-0.08,-0.2,0.1
-2.828000e-04,0,-0.2,-0.1
-2.824000e-04,-0.08,-0.2,-0.1
-2.820000e-04,0,0.2,0.3
-2.816000e-04,0.08,-0.2,-0.1
-2.812000e-04,0,-0.2,-0.1
-2.808000e-04,-0.08,0,0.1
-2.804000e-04,0,0,-0.1
-2.800000e-04,0,0,-0.1
-2.796000e-04,0,-0.2,-0.1
-2.792000e-04,-0.08,0,0.1
-2.788000e-04,0,0,-0.1
-2.784000e-04,0,0,0.1
-2.780000e-04,-0.08,0.2,0.1
-2.776000e-04,0,0,-0.1
-2.772000e-04,-0.08,0,0.1
-2.768000e-04,0,-0.2,-0.1
-2.764000e-04,-0.08,0,-0.1
-2.760000e-04,0,0,-0.1
-2.756000e-04,0,0,-0.1
-2.752000e-04,0,0,-0.1
-2.748000e-04,0,0,-0.1
-2.744000e-04,0,0,0.1
-2.740000e-04,0,0,0.1
-2.736000e-04,-0.08,-0.2,0.1
-2.732000e-04,0,-0.2,-0.1
-2.728000e-04,-0.08,-0.2,0.1
-2.724000e-04,0,-0.4,0.1
-2.720000e-04,0,0,-0.1
-2.716000e-04,0,-0.2,-0.1
-2.712000e-04,-0.08,0,-0.1
-2.708000e-04,0,-0.2,0.1
-2.704000e-04,-0.08,0,-0.1
-2.700000e-04,0,0,-0.1
-2.696000e-04,0,0,-0.1
-2.692000e-04,0,0,-0.1
-2.688000e-04,0,-0.2,-0.1
-2.684000e-04,-0.08,-0.2,0.1
-2.680000e-04,-0.08,0,0.3
-2.676000e-04,0,-0.2,0.1
-2.672000e-04,0,0.2,0.1
-2.668000e-04,0,0,-0.1
-2.664000e-04,0,0,0.1
-2.660000e-04,-0.08,0,-0.1
-2.656000e-04,-0.08,0,0.1
-2.652000e-04,0.08,-0.2,-0.1
-2.648000e-04,-0.08,-0.2,0.1
-2.644000e-04,0,0,-0.1
-2.640000e-04,0,-0.2,-0.1
-2.636000e-04,0,-0.2,0.1
-2.632000e-04,0,0,-0.1
-2.628000e-04,0,-0.2,-0.1
-2.624000e-04,-0.08,-0.2,0.1
-2.620000e-04,0,0.2,-0.1
-2.616000e-04,0,0,-0.1
-2.612000e-04,-0.08,0.2,-0.1
-2.608000e-04,-0.08,0.2,-0.1
-2.604000e-04,0,0,0.1
-2.600000e-04,0,0,0.1
-2.596000e-04,0,0,0.1
-2.592000e-04,0,0,0.1
-2.588000e-04,-0.08,-0.2,-0.1
-2.584000e-04,0,0,0.1
-2.580000e-04,-0.08,0,0.3
-2.576000e-04,0,0,0.1
-2.572000e-04,0,0,-0.1
-2.568000e-04,0,0,0.1
-2.564000e-04,0,0,0.1
-2.560000e-04,-0.08,0,-0.1
-2.556000e-04,-0.08,0,-0.1
-2.552000e-04,-0.08,0,-0.1
-2.548000e-04,0.08,-0.2,0.1
-2.544000e-04,-0.08,-0.2,0.1
-2.540000e-04,-0.08,0,0.1
-2.536000e-04,0,-0.2,0.1
-2.532000e-04,0,0,-0.1
-2.528000e-04,0,0,-0.1
-2.524000e-04,-0.08,0,-0.1
-2.520000e-04,0,0,0.1
-2.516000e-04,-0.08,0,-0.1
-2.512000e-04,-0.08,-0.4,0.1
-2.508000e-04,0,0,0.1
-2.504000e-04,0,0,-0.1
-2.500000e-04,0,-0.2,0.1
-2.496000e-04,0,0,-0.1
-2.492000e-04,0,0,0.1
-2.488000e-04,0,0.2,-0.1
-2.484000e-04,0,0,0.1
-2.480000e-04,0,0,-0.1
-2.476000e-04,0,0,0.1
-2.472000e-04,0,0,0.1
-2.468000e-04,-0.08,0,0.1
-2.464000e-04,0,0,0.1
-2.460000e-04,0,0.2,0.1
-2.456000e-04,0,-0.2,-0.1
-2.452000e-04,0,-0.2,0.1
-2.448000e-04,0,0,0.1
-2.444000e-04,0.08,0,0.1
-2.440000e-04,-0.08,0,-0.1
-2.436000e-04,0,0,-0.1
-2.432000e-04,-0.08,0,0.1
-2.428000e-04,-0.08,0,-0.1
-2.424000e-04,-0.08,0,0.1
-2.420000e-04,0,0,-0.1
-2.416000e-04,0,0,-0.3
-2.412000e-04,-0.08,-0.2,0.1
-2.408000e-04,0,-0.2,-0.1
-2.404000e-04,-0.08,0,0.1
-2.400000e-04,0,0,0.1
-2.396000e-04,-0.08,-0.2,-0.1
-2.392000e-04,0,-0.2,0.1
-2.388000e-04,-0.08,0,-0.1
-2.384000e-04,0,0,0.1
-2.380000e-04,0,-0.2,-0.1
-2.376000e-04,-0.08,0,-0.1
-2.372000e-04,-0.08,-0.2,-0.1
-2.368000e-04,0,0,0.1
-2.364000e-04,0,0.2,0.1
-2.360000e-04,-0.08,0.2,0.1
-2.356000e-04,0,-0.2,0.1
-2.352000e-04,0,0.2,0.1
-2.348000e-04,0,-0.2,-0.1
-2.344000e-04,-0.08,0,0.1
-2.340000e-04,-0.08,0,-0.1
-2.336000e-04,0,0,-0.1
-2.332000e-04,-0.08,0,-0.1
-2.328000e-04,0,0,0.1
-2.324000e-04,-0.08,-0.2,0.3
-2.320000e-04,-0.08,0,-0.1
-2.316000e-04,0,0,0.1
-2.312000e-04,0.08,0,-0.1
-2.308000e-04,-0.08,0,-0.3
-2.304000e-04,-0.08,0,-0.1
-2.300000e-04,0,0,-0.1
-2.296000e-04,-0.08,-0.2,0.1
-2.292000e-04,0,0.2,-0.1
-2.288000e-04,0,-0.2,0.1
-2.284000e-04,-0.08,-0.2,-0.1
-2.280000e-04,0,0,0.1
-2.276000e-04,0.08,0,-0.1
-2.272000e-04,-0.08,0,0.1
-2.268000e-04,-0.08,0,0.3
-2.264000e-04,-0.08,0,0.1
-2.260000e-04,-0.08,0,0.1
-2.256000e-04,-0.08,0,0.1
-2.252000e-04,0,0,0.1
-2.248000e-04,0,0.2,0.1
-2.244000e-04,0,0,-0.1
-2.240000e-04,-0.08,0,0.1
-2.236000e-04,-0.08,0,0.1
-2.232000e-04,0,0.2,0.3
-2.228000e-04,0,0,0.1
-2.224000e-04,-0.08,0,0.1
-2.220000e-04,0,0.2,-0.1
-2.216000e-04,0,0,-0.1
-2.212000e-04,0,0,0.1
-2.208000e-04,-0.08,-0.2,0.1
-2.204000e-04,0,0,0.1
-2.200000e-04,0,-0.2,0.1
-2.196000e-04,-0.08,0,0.1
-2.192000e-04,-0.08,0,-0.1
-2.188000e-04,0.08,0,0.1
-2.184000e-04,-0.08,0,0.1
-2.180000e-04,-0.08,0.2,0.1
-2.176000e-04,-0.08,0,0.1
-2.172000e-04,-0.08,0.2,0.1
-2.168000e-04,-0.08,0,-0.1
-2.164000e-04,-0.08,-0.2,0.1
-2.160000e-04,0,-0.2,0.3
-2.156000e-04,-0.08,0,-0.1
-2.152000e-04,-0.08,0.2,0.1
-2.148000e-04,0.08,0,0.1
-2.144000e-04,0,0,-0.1
-2.140000e-04,0.08,0,0.1
-2.136000e-04,0,0,0.1
-2.132000e-04,0,0,-0.1
-2.128000e-04,0,0.2,-0.1
-2.124000e-04,0,-0.2,0.1
-2.120000e-04,0,-0.2,0.1
-2.116000e-04,0,0.2,-0.1
-2.112000e-04,0,0,-0.1
-2.108000e-04,0,-0.2,0.1
-2.104000e-04,-0.08,0,0.1
-2.100000e-04,-0.08,0.2,0.1
-2.096000e-04,0,0.2,0.1
-2.092000e-04,0,0,-0.1
-2.088000e-04,-0.16,-0.2,-0.1
-2.084000e-04,-0.16,0.2,0.1
-2.080000e-04,0.08,0,0.1
-2.076000e-04,0,0,0.1
-2.072000e-04,-0.08,-0.2,0.1
-2.068000e-04,-0.08,0,-0.1
-2.064000e-04,0,-0.2,0.3
-2.060000e-04,0,0,0.3
-2.056000e-04,-0.08,0,-0.1
-2.052000e-04,-0.08,0.2,0.1
-2.048000e-04,0.08,-0.2,-0.1
-2.044000e-04,-0.08,-0.2,0.1
-2.040000e-04,0,0,0.1
-2.036000e-04,-0.08,0,0.3
-2.032000e-04,-0.08,0,0.1
-2.028000e-04,0,0.2,-0.1
-2.024000e-04,-0.08,-0.2,-0.1
-2.020000e-04,0,0,0.1
-2.016000e-04,-0.08,10.6,6.9
-2.012000e-04,-0.16,12.8,11.5
-2.008000e-04,0,13.4,12.3
-2.004000e-04,-0.08,13.4,12.5
-2.000000e-04,0,13.4,12.5
-1.996000e-04,-0.08,13.4,12.5
-1.992000e-04,-0.08,13.2,12.5
-1.988000e-04,-0.08,13.2,12.7
-1.984000e-04,0,13.4,12.7
-1.980000e-04,-0.08,13.4,12.7
-1.976000e-04,-0.08,13.4,12.9
-1.972000e-04,0,13.2,12.7
-1.968000e-04,-0.08,13.4,12.5
-1.964000e-04,0,13.4,12.7
-1.960000e-04,0,13.4,12.7
-1.956000e-04,0,13.4,12.7
-1.952000e-04,0,13.4,12.7
-1.948000e-04,0,13.4,12.5
-1.944000e-04,0,13.2,12.3
-1.940000e-04,0.08,13.2,12.7
-1.936000e-04,0,13.4,12.7
-1.932000e-04,-0.08,13.4,12.7
-1.928000e-04,0,13.4,12.7
-1.924000e-04,-0.08,13.4,12.5
-1.920000e-04,0,13.4,12.7
-1.916000e-04,0,13.4,12.7
-1.912000e-04,-0.08,13.4,12.7
-1.908000e-04,0,13.2,12.5
-1.904000e-04,0,13.4,12.5
-1.900000e-04,0,13.4,12.7
-1.896000e-04,0,13.4,12.5
-1.892000e-04,0,13.4,12.9
-1.888000e-04,0,13.2,12.7
-1.884000e-04,0,13.6,12.7
-1.880000e-04,0,13.4,12.9
-1.876000e-04,0.08,13.4,12.7
-1.872000e-04,0,13.4,12.9
-1.868000e-04,0,13.4,12.5
-1.864000e-04,0,13.4,12.9
-1.860000e-04,-0.08,13.4,12.7
-1.856000e-04,-0.08,13.2,12.7
-1.852000e-04,0,13.4,12.7
-1.848000e-04,0,13.4,12.5
-1.844000e-04,-0.08,13,12.5
-1.840000e-04,0,13.4,12.7
-1.836000e-04,0,13.4,12.7
-1.832000e-04,0.08,13.4,12.7
-1.828000e-04,0,13.4,12.5
-1.824000e-04,-0.08,13.6,12.7
-1.820000e-04,0,13.4,12.5
-1.816000e-04,-0.08,13.4,12.7
-1.812000e-04,0,13.4,12.5
-1.808000e-04,-0.08,13.4,12.5
-1.804000e-04,-0.08,13.4,12.5
-1.800000e-04,0,13.4,12.7
-1.796000e-04,-0.16,13.6,12.7
-1.792000e-04,0,13.4,12.7
-1.788000e-04,-0.08,13.4,12.7
-1.784000e-04,0,13.4,12.7
-1.780000e-04,0,13.4,12.7
-1.776000e-04,-0.08,13.4,12.7
-1.772000e-04,0,13.4,12.9
-1.768000e-04,0,13.4,12.7
-1.764000e-04,-0.08,13.4,12.7
-1.760000e-04,-0.08,13.2,12.7
-1.756000e-04,0,13.2,12.7
-1.752000e-04,0,13.4,12.7
-1.748000e-04,-0.08,13,12.7
-1.744000e-04,-0.08,13.4,12.7
-1.740000e-04,0,13.2,12.5
-1.736000e-04,0,13.4,12.5
-1.732000e-04,-0.08,13.4,12.7
-1.728000e-04,-0.08,13.4,12.7
-1.724000e-04,0,13.4,12.7
-1.720000e-04,0,13.2,12.9
-1.716000e-04,0,13.4,12.7
-1.712000e-04,0,13.4,12.7
-1.708000e-04,0,13.4,12.5
-1.704000e-04,0,13.2,12.7
-1.700000e-04,-0.08,13.4,12.7
-1.696000e-04,-0.08,13.4,12.7
-1.692000e-04,-0.08,13.2,12.7
-1.688000e-04,0,13.4,12.7
-1.684000e-04,-0.08,13.4,12.7
-1.680000e-04,0.08,13.4,12.5
-1.676000e-04,0,13.4,12.5
-1.672000e-04,0.08,13.4,12.5
-1.668000e-04,0,13.4,12.3
-1.664000e-04,0,13.4,12.5
-1.660000e-04,-0.08,13.2,12.5
-1.656000e-04,-0.08,13.2,12.7
-1.652000e-04,0,13.2,12.7
-1.648000e-04,0,13.4,12.3
-1.644000e-04,0,13.2,12.5
-1.640000e-04,-0.08,13.4,12.7
-1.636000e-04,-0.08,13.4,12.5
-1.632000e-04,-0.08,13.4,12.7
-1.628000e-04,0,13.4,12.5
-1.624000e-04,-0.08,13.4,12.7
-1.620000e-04,-0.08,13.2,12.5
-1.616000e-04,-0.08,13.4,12.7
-1.612000e-04,-0.08,13.4,12.7
-1.608000e-04,0,13.4,12.7
-1.604000e-04,0,13.4,12.7
-1.600000e-04,-0.08,13.2,12.7
-1.596000e-04,0,13.2,12.5
-1.592000e-04,0,13.2,12.5
-1.588000e-04,0,13.2,12.5
-1.584000e-04,0,13.2,12.7
-1.580000e-04,-0.08,13.2,12.5
-1.576000e-04,0,13.2,12.7
-1.572000e-04,-0.08,13.4,12.5
-1.568000e-04,0,13.4,12.7
-1.564000e-04,0,13.2,12.7
-1.560000e-04,-0.08,13.2,12.7
-1.556000e-04,0.08,13.4,12.7
-1.552000e-04,0,13.4,12.7
-1.548000e-04,0,13,12.7
-1.544000e-04,-0.08,13.2,12.5
-1.540000e-04,-0.08,13.2,12.5
-1.536000e-04,0,13.4,12.7
-1.532000e-04,-0.08,13.4,12.7
-1.528000e-04,0,13.4,12.7
-1.524000e-04,0,13.2,12.7
-1.520000e-04,0,13.4,12.5
-1.516000e-04,-0.08,13.4,12.7
-1.512000e-04,-0.08,13.4,12.5
-1.508000e-04,-0.08,13.4,12.5
-1.504000e-04,-0.08,13.2,12.9
-1.500000e-04,-0.08,13.4,12.7
-1.496000e-04,0,13.4,12.7
-1.492000e-04,-0.08,13.4,12.5
-1.488000e-04,-0.08,13.4,12.9
-1.484000e-04,0,13.4,12.7
-1.480000e-04,0,13.4,12.7
-1.476000e-04,-0.08,13.4,12.5
-1.472000e-04,-0.08,13.2,12.7
-1.468000e-04,0,13,12.7
-1.464000e-04,0,13.4,12.7
-1.460000e-04,0.08,13.4,12.7
-1.456000e-04,0,13.4,12.7
-1.452000e-04,-0.16,13.2,12.9
-1.448000e-04,0,13.4,12.7
-1.444000e-04,0,13.2,12.5
-1.440000e-04,0,13.4,12.7
-1.436000e-04,0.08,13.4,12.7
-1.432000e-04,0,13.4,12.7
-1.428000e-04,0,13.2,12.5
-1.424000e-04,0,13.2,12.7
-1.420000e-04,-0.16,13.4,12.9
-1.416000e-04,0,13.6,12.7
-1.412000e-04,0,13.2,12.9
-1.408000e-04,0,13.4,12.7
-1.404000e-04,-0.08,13.2,12.7
-1.400000e-04,0,13.2,12.7
-1.396000e-04,-0.08,13.4,12.7
-1.392000e-04,-0.08,13.4,12.9
-1.388000e-04,0.08,13.4,12.5
-1.384000e-04,0,13.2,12.7
-1.380000e-04,0,13.4,12.7
-1.376000e-04,0,13.4,12.7
-1.372000e-04,0,13.4,12.7
-1.368000e-04,-0.08,13.4,12.7
-1.364000e-04,0,13.4,12.7
-1.360000e-04,0,13.4,12.7
-1.356000e-04,0,13,12.7
-1.352000e-04,-0.08,13.2,12.7
-1.348000e-04,0,13.4,12.7
-1.344000e-04,-0.08,13.4,12.7
-1.340000e-04,-0.08,13.4,12.9
-1.336000e-04,0,13.4,12.5
-1.332000e-04,0,13.2,12.5
-1.328000e-04,0,13.4,12.9
-1.324000e-04,0,13.4,12.7
-1.320000e-04,0,13.2,12.5
-1.316000e-04,0,13.4,12.7
-1.312000e-04,-0.08,13.2,12.5
-1.308000e-04,0,13.4,12.7
-1.304000e-04,0,13.2,12.7
-1.300000e-04,0.08,13.2,12.7
-1.296000e-04,0,13.6,12.5
-1.292000e-04,-0.08,13.4,12.7
-1.288000e-04,-0.08,13.4,12.5
-1.284000e-04,0,13.2,12.7
-1.280000e-04,-0.08,13.4,12.7
-1.276000e-04,-0.08,13.2,12.7
-1.272000e-04,-0.08,13.4,12.9
-1.268000e-04,-0.08,13.4,12.5
-1.264000e-04,0,13.2,12.7
-1.260000e-04,0,13.2,12.7
-1.256000e-04,0,13.4,12.7
-1.252000e-04,0,13.2,12.7
-1.248000e-04,0,13.2,12.7
-1.244000e-04,0,13.4,12.5
-1.240000e-04,0,13.4,12.7
-1.236000e-04,0,13.2,12.3
-1.232000e-04,0,13.4,12.5
-1.228000e-04,0,13.2,12.5
-1.224000e-04,-0.08,13.4,12.7
-1.220000e-04,-0.08,13.4,12.5
-1.216000e-04,0,13.2,12.7
-1.212000e-04,0,13.6,12.5
-1.208000e-04,-0.08,13.4,12.7
-1.204000e-04,0,13.4,12.9
-1.200000e-04,0,13.4,12.7
-1.196000e-04,-0.16,13.4,12.5
-1.192000e-04,-0.08,13.4,12.5
-1.188000e-04,0,13.2,12.7
-1.184000e-04,-0.08,13.2,12.7
-1.180000e-04,0,13.2,12.7
-1.176000e-04,0,13.4,12.5
-1.172000e-04,0,13.4,12.5
-1.168000e-04,0,13.4,12.5
-1.164000e-04,0,13.4,12.7
-1.160000e-04,0,13.4,12.7
-1.156000e-04,-0.08,13.2,12.5
-1.152000e-04,0,13.4,12.7
-1.148000e-04,0.08,13.2,12.7
-1.144000e-04,0,13.6,12.7
-1.140000e-04,0,13.4,12.7
-1.136000e-04,0,13.4,12.9
-1.132000e-04,-0.16,13.2,12.7
-1.128000e-04,-0.08,13.4,12.7
-1.124000e-04,0,13.4,12.7
-1.120000e-04,0,13.4,12.7
-1.116000e-04,0,13.4,12.7
-1.112000e-04,0,13.2,12.7
-1.108000e-04,0,13.2,12.5
-1.104000e-04,0,13.4,12.7
-1.100000e-04,0,13.4,12.9
-1.096000e-04,0.08,13,12.7
-1.092000e-04,0,13.2,12.7
-1.088000e-04,-0.08,13.4,12.7
-1.084000e-04,-0.08,13.4,12.5
-1.080000e-04,-0.08,13.4,12.3
-1.076000e-04,0,13.4,12.7
-1.072000e-04,0,13.4,12.5
-1.068000e-04,-0.08,13.4,12.5
-1.064000e-04,0,13.4,12.7
-1.060000e-04,0,13.4,12.5
-1.056000e-04,-0.08,13.2,12.7
-1.052000e-04,-0.08,13.2,12.7
-1.048000e-04,0,13.4,12.7
-1.044000e-04,0,13.2,12.7
-1.040000e-04,0.08,13.4,12.7
-1.036000e-04,0.08,13.4,12.7
-1.032000e-04,-0.08,13.4,12.7
-1.028000e-04,-0.16,13.2,12.7
-1.024000e-04,-0.08,13.4,12.5
-1.020000e-04,0,13.4,12.5
-1.016000e-04,-0.08,13.2,12.7
-1.012000e-04,0,13.4,12.7
-1.008000e-04,-0.16,13.4,12.7
-1.004000e-04,-0.08,13.4,12.9
-1.000000e-04,0,13.4,12.7
-9.960000e-05,0.08,13.4,12.5
-9.920000e-05,0,13.2,12.5
-9.880000e-05,0,13.2,12.7
-9.840000e-05,0,13.4,12.7
-9.800000e-05,0.08,13.4,12.7
-9.760000e-05,-0.08,13.4,12.7
-9.720000e-05,0,13.4,12.7
-9.680000e-05,0,13.4,12.7
-9.640000e-05,0,13.2,12.5
-9.600000e-05,-0.08,13.2,12.5
-9.560000e-05,0,13.2,12.5
-9.520000e-05,0,13.2,12.7
-9.480000e-05,-0.08,13.4,12.7
-9.440000e-05,0,13.4,12.7
-9.400000e-05,-0.08,13.2,12.5
-9.360000e-05,0,13.2,12.5
-9.320000e-05,0,13.2,12.7
-9.280000e-05,0,13.4,12.5
-9.240000e-05,0,13.2,12.5
-9.200000e-05,0,13.4,12.7
-9.160000e-05,-0.08,13.4,12.7
