Data/HeatCapacity/helium heat capacity/pulse data/tek0013.csv

Model,MDO3014
Firmware Version,1.20

Waveform Type,ANALOG,,
Point Format,Y,,
Horizontal Units,s,,
Horizontal Scale,0.001,,
Horizontal Delay,0.00402,,
Sample Interval,1e-06,,
Record Length,10000,,
Gating,0.0% to 100.0%,,
Probe Attenuation,1,1,1
Vertical Units,V,V,V
Vertical Offset,0,0,0
Vertical Scale,2,2,5
Vertical Position,-2.44,-0.02,-0.94
,,,
,,,
,,,
Label,,,
TIME,CH1,CH2,CH3
-9.800000e-04,-0.08,5.72,5.3
-9.790000e-04,-0.08,5.8,5.5
-9.780000e-04,-0.16,5.72,5.5
-9.770000e-04,-0.08,5.72,5.3
-9.760000e-04,-0.16,5.88,5.3
-9.750000e-04,-0.08,5.8,5.1
-9.740000e-04,-0.08,5.8,5.3
-9.730000e-04,-0.08,5.72,5.5
-9.720000e-04,0,5.72,5.5
-9.710000e-04,-0.08,5.72,5.3
-9.700000e-04,-0.08,5.8,5.5
-9.690000e-04,-0.16,5.72,5.1
-9.680000e-04,-0.08,5.72,5.3
-9.670000e-04,0,5.72,5.5
-9.660000e-04,0,5.72,5.5
-9.650000e-04,0,5.8,5.5
-9.640000e-04,-0.08,5.72,5.3
-9.630000e-04,0,5.72,5.3
-9.620000e-04,0,5.8,5.3
-9.610000e-04,-0.08,5.72,5.5
-9.600000e-04,-0.08,5.8,5.1
-9.590000e-04,-0.08,5.72,5.5
-9.580000e-04,-0.16,5.72,5.3
-9.570000e-04,-0.08,5.8,5.5
-9.560000e-04,-0.08,5.72,5.3
-9.550000e-04,0,5.72,5.5
-9.540000e-04,-0.08,5.8,5.5
-9.530000e-04,-0.08,5.72,5.3
-9.520000e-04,-0.16,5.72,5.5
-9.510000e-04,-0.08,5.72,5.3
-9.500000e-04,-0.08,5.72,5.5
-9.490000e-04,-0.16,5.8,5.3
-9.480000e-04,-0.08,5.8,5.5
-9.470000e-04,-0.16,5.8,5.3
-9.460000e-04,-0.08,5.72,5.3
-9.450000e-04,0,5.72,5.3
-9.440000e-04,-0.08,5.8,5.3
-9.430000e-04,-0.08,5.72,5.3
-9.420000e-04,-0.08,5.72,5.3
-9.410000e-04,-0.16,5.72,5.5
-9.400000e-04,0,5.64,5.3
-9.390000e-04,0,5.8,5.3
-9.380000e-04,-0.08,5.64,5.5
-9.370000e-04,-0.08,5.72,5.5
-9.360000e-04,-0.16,5.72,5.3
-9.350000e-04,-0.16,5.64,5.5
-9.340000e-04,-0.08,5.8,5.5
-9.330000e-04,-0.08,5.8,5.5
-9.320000e-04,-0.08,5.8,5.3
-9.310000e-04,-0.08,5.72,5.7
-9.300000e-04,-0.08,5.72,5.5
-9.290000e-04,-0.08,5.72,5.1
-9.280000e-04,-0.08,5.64,5.5
-9.270000e-04,-0.08,5.72,5.5
-9.260000e-04,-0.16,5.72,5.3
-9.250000e-04,-0.08,5.72,5.5
-9.240000e-04,-0.08,5.72,5.3
-9.230000e-04,-0.16,5.72,5.3
-9.220000e-04,-0.08,5.8,5.5
-9.210000e-04,-0.08,5.72,5.3
-9.200000e-04,-0.16,5.8,5.5
-9.190000e-04,0,5.72,5.3
-9.180000e-04,-0.08,5.72,5.5
-9.170000e-04,-0.08,5.8,5.5
-9.160000e-04,0,5.8,5.3
-9.150000e-04,-0.08,5.72,5.5
-9.140000e-04,-0.08,5.8,5.3
-9.130000e-04,-0.08,5.8,5.3
-9.120000e-04,-0.08,5.72,5.3
-9.110000e-04,-0.08,5.72,5.3
-9.100000e-04,0,5.72,5.3
-9.090000e-04,-0.16,5.72,5.3
-9.080000e-04,-0.08,5.72,5.3
-9.070000e-04,-0.08,5.72,5.3
-9.060000e-04,-0.08,5.72,5.5
-9.050000e-04,-0.08,5.8,5.5
-9.040000e-04,0,5.72,5.3
-9.030000e-04,-0.08,5.72,5.5
-9.020000e-04,-0.08,5.8,5.5
-9.010000e-04,-0.08,5.8,5.3
-9.000000e-04,-0.16,5.8,5.3
-8.990000e-04,-0.08,5.72,5.5
-8.980000e-04,-0.16,5.8,5.3
-8.970000e-04,-0.08,5.8,5.3
-8.960000e-04,-0.16,5.72,5.5
-8.950000e-04,-0.08,5.72,5.5
-8.940000e-04,-0.16,5.72,5.3
-8.930000e-04,0.08,5.8,5.5
-8.920000e-04,-0.08,5.72,5.5
-8.910000e-04,-0.08,5.8,5.5
-8.900000e-04,0,5.72,5.5
-8.890000e-04,-0.08,5.8,5.5
-8.880000e-04,-0.08,5.72,5.5
-8.870000e-04,-0.16,5.72,5.5
-8.860000e-04,0,5.72,5.1
-8.850000e-04,0,5.72,5.5
-8.840000e-04,0,5.72,5.5
-8.830000e-04,-0.08,5.72,5.5
-8.820000e-04,0,5.8,5.3
-8.810000e-04,-0.08,5.72,5.5
-8.800000e-04,0,5.64,5.5
-8.790000e-04,-0.08,5.72,5.3
-8.780000e-04,-0.16,5.72,5.3
-8.770000e-04,-0.08,5.8,5.5
-8.760000e-04,-0.16,5.8,5.5
-8.750000e-04,-0.08,5.72,5.5
-8.740000e-04,-0.08,5.72,5.3
-8.730000e-04,-0.08,5.72,5.3
-8.720000e-04,-0.08,5.72,5.5
-8.710000e-04,-0.08,5.8,5.5
-8.700000e-04,-0.08,5.8,5.5
-8.690000e-04,0,5.8,5.3
-8.680000e-04,-0.16,5.72,5.5
-8.670000e-04,-0.08,5.72,5.7
-8.660000e-04,0,5.72,5.3
-8.650000e-04,-0.08,5.8,5.7
-8.640000e-04,-0.08,5.72,5.3
-8.630000e-04,-0.08,5.8,5.5
-8.620000e-04,-0.08,5.8,5.3
-8.610000e-04,0,5.8,5.3
-8.600000e-04,0,5.72,5.5
-8.590000e-04,-0.08,5.64,5.5
-8.580000e-04,-0.08,5.72,5.3
-8.570000e-04,0,5.8,5.5
-8.560000e-04,-0.08,5.8,5.3
-8.550000e-04,-0.08,5.88,5.3
-8.540000e-04,-0.08,5.72,5.5
-8.530000e-04,0,5.72,5.3
-8.520000e-04,-0.08,5.8,5.3
-8.510000e-04,0,5.72,5.3
-8.500000e-04,-0.08,5.72,5.3
-8.490000e-04,-0.08,5.8,5.3
-8.480000e-04,-0.08,5.72,5.5
-8.470000e-04,-0.08,5.8,5.3
-8.460000e-04,-0.08,5.8,5.5
-8.450000e-04,0,5.8,5.3
-8.440000e-04,-0.08,5.72,5.3
-8.430000e-04,0,5.72,5.3
-8.420000e-04,0,5.72,5.5
-8.410000e-04,0,5.72,5.3
-8.400000e-04,-0.08,5.72,5.3
-8.390000e-04,0,5.72,5.3
-8.380000e-04,-0.16,5.72,5.5
-8.370000e-04,-0.08,5.8,5.3
-8.360000e-04,-0.16,5.8,5.3
-8.350000e-04,0,5.72,5.3
-8.340000e-04,-0.08,5.8,5.5
-8.330000e-04,-0.08,5.8,5.3
-8.320000e-04,-0.08,5.8,5.3
-8.310000e-04,-0.08,5.8,5.5
-8.300000e-04,-0.08,5.8,5.5
-8.290000e-04,-0.08,5.8,5.3
-8.280000e-04,-0.16,5.8,5.3
-8.270000e-04,-0.08,5.8,5.5
-8.260000e-04,-0.16,5.72,5.5
-8.250000e-04,-0.08,5.72,5.3
-8.240000e-04,0,5.72,5.5
-8.230000e-04,-0.08,5.8,5.3
-8.220000e-04,-0.08,5.72,5.3
-8.210000e-04,-0.08,5.72,5.5
-8.200000e-04,-0.08,5.8,5.3
-8.190000e-04,0,5.72,5.3
-8.180000e-04,0,5.72,5.3
-8.170000e-04,-0.16,5.72,5.5
-8.160000e-04,0,5.72,5.3
-8.150000e-04,-0.08,5.8,5.5
-8.140000e-04,-0.08,5.72,5.5
-8.130000e-04,-0.16,5.8,5.3
-8.120000e-04,-0.08,5.72,5.5
-8.110000e-04,0,5.72,5.3
-8.100000e-04,-0.08,5.72,5.5
-8.090000e-04,0,5.88,5.3
-8.080000e-04,-0.08,5.72,5.3
-8.070000e-04,0,5.72,5.3
-8.060000e-04,-0.08,5.8,5.3
-8.050000e-04,-0.08,5.8,5.3
-8.040000e-04,-0.16,5.72,5.3
-8.030000e-04,-0.16,5.72,5.3
-8.020000e-04,-0.08,5.8,5.3
-8.010000e-04,-0.08,5.72,5.5
-8.000000e-04,-0.08,5.8,5.3
-7.990000e-04,-0.08,5.8,5.1
-7.980000e-04,-0.08,5.72,5.5
-7.970000e-04,-0.08,5.8,5.5
-7.960000e-04,-0.08,5.8,5.5
-7.950000e-04,-0.08,5.72,5.3
-7.940000e-04,-0.08,5.8,5.3
-7.930000e-04,-0.08,5.72,5.1
-7.920000e-04,-0.16,5.8,5.3
-7.910000e-04,-0.08,5.72,5.7
-7.900000e-04,-0.08,5.8,5.3
-7.890000e-04,-0.08,5.8,5.5
-7.880000e-04,-0.08,5.8,5.5
-7.870000e-04,0,5.8,5.3
-7.860000e-04,0,5.72,5.5
-7.850000e-04,0,5.72,5.3
-7.840000e-04,0,5.8,5.3
-7.830000e-04,-0.16,5.8,5.5
-7.820000e-04,-0.08,5.72,5.5
-7.810000e-04,-0.16,5.72,5.5
-7.800000e-04,-0.08,5.8,5.3
-7.790000e-04,0,5.72,5.5
-7.780000e-04,-0.08,5.72,5.3
-7.770000e-04,-0.08,5.8,5.7
-7.760000e-04,-0.08,5.8,5.3
-7.750000e-04,-0.16,5.8,5.3
-7.740000e-04,0,5.8,5.3
-7.730000e-04,-0.08,5.8,5.3
-7.720000e-04,0,5.8,5.5
-7.710000e-04,0,5.72,5.3
-7.700000e-04,-0.08,5.8,5.3
-7.690000e-04,0,5.8,5.5
-7.680000e-04,0,5.72,5.3
-7.670000e-04,-0.08,5.72,5.5
-7.660000e-04,0,5.72,5.5
-7.650000e-04,0,5.72,5.3
-7.640000e-04,-0.16,5.72,5.3
-7.630000e-04,-0.08,5.72,5.3
-7.620000e-04,0,5.8,5.3
-7.610000e-04,-0.08,5.8,5.1
-7.600000e-04,-0.08,5.72,5.3
-7.590000e-04,-0.08,5.8,5.1
-7.580000e-04,-0.08,5.8,5.5
-7.570000e-04,-0.08,5.72,5.5
-7.560000e-04,-0.16,5.8,5.1
-7.550000e-04,-0.08,5.8,5.5
-7.540000e-04,-0.16,5.8,5.5
-7.530000e-04,-0.16,5.8,5.3
-7.520000e-04,-0.08,5.8,5.3
-7.510000e-04,0,5.8,5.3
-7.500000e-04,0,5.8,5.3
-7.490000e-04,-0.08,5.8,5.3
-7.480000e-04,-0.08,5.72,5.7
-7.470000e-04,-0.08,5.8,5.5
-7.460000e-04,-0.08,5.72,5.3
-7.450000e-04,-0.16,5.72,5.3
-7.440000e-04,-0.08,5.72,5.5
-7.430000e-04,-0.08,5.72,5.3
-7.420000e-04,-0.08,5.72,5.3
-7.410000e-04,-0.16,5.8,5.5
-7.400000e-04,-0.08,5.8,5.5
-7.390000e-04,-0.08,5.8,5.5
-7.380000e-04,0,5.72,5.3
-7.370000e-04,-0.08,5.72,5.3
-7.360000e-04,-0.08,5.72,5.5
-7.350000e-04,-0.08,5.72,5.3
-7.340000e-04,-0.08,5.8,5.3
-7.330000e-04,-0.08,5.72,5.5
-7.320000e-04,-0.08,5.72,5.3
-7.310000e-04,-0.08,5.72,5.3
-7.300000e-04,0,5.72,5.3
-7.290000e-04,0,5.8,5.3
-7.280000e-04,0,5.72,5.5
-7.270000e-04,-0.08,5.64,5.5
-7.260000e-04,0,5.72,5.3
-7.250000e-04,0,5.72,5.5
-7.240000e-04,0,5.72,5.3
-7.230000e-04,-0.08,5.8,5.3
-7.220000e-04,-0.08,5.8,5.7
-7.210000e-04,-0.08,5.72,5.5
-7.200000e-04,-0.08,5.8,5.5
-7.190000e-04,-0.08,5.72,5.5
-7.180000e-04,-0.08,5.72,5.3
-7.170000e-04,0,5.8,5.5
-7.160000e-04,-0.08,5.8,5.3
-7.150000e-04,0,5.8,5.5
-7.140000e-04,-0.08,5.8,5.3
-7.130000e-04,0,5.72,5.3
-7.120000e-04,-0.08,5.72,5.5
-7.110000e-04,-0.08,5.8,5.5
-7.100000e-04,-0.08,5.8,5.3
-7.090000e-04,-0.08,5.8,5.5
-7.080000e-04,0,5.8,5.5
-7.070000e-04,-0.08,5.8,5.3
-7.060000e-04,-0.08,5.8,5.5
-7.050000e-04,-0.08,5.8,5.7
-7.040000e-04,-0.08,5.8,5.3
-7.030000e-04,0,5.72,5.3
-7.020000e-04,-0.08,5.72,5.5
-7.010000e-04,0,5.72,5.5
-7.000000e-04,-0.08,5.8,5.3
-6.990000e-04,-0.08,5.72,5.5
-6.980000e-04,-0.08,5.8,5.5
-6.970000e-04,-0.08,5.88,5.5
-6.960000e-04,-0.08,5.8,5.7
-6.950000e-04,0,5.72,5.3
-6.940000e-04,-0.08,5.8,5.5
-6.930000e-04,-0.08,5.8,5.5
-6.920000e-04,-0.08,5.72,5.3
-6.910000e-04,-0.08,5.72,5.5
-6.900000e-04,0,5.72,5.5
-6.890000e-04,-0.08,5.8,5.5
-6.880000e-04,-0.08,5.88,5.3
-6.870000e-04,-0.08,5.8,5.3
-6.860000e-04,-0.08,5.8,5.5
-6.850000e-04,-0.08,5.88,5.3
-6.840000e-04,-0.08,5.8,5.3
-6.830000e-04,-0.08,5.8,5.5
-6.820000e-04,-0.08,5.8,5.3
-6.810000e-04,0,5.8,5.5
-6.800000e-04,-0.08,5.72,5.3
-6.790000e-04,-0.08,5.72,5.5
-6.780000e-04,-0.08,5.72,5.3
-6.770000e-04,-0.16,5.8,5.5
-6.760000e-04,-0.08,5.8,5.5
-6.750000e-04,-0.08,5.72,5.3
-6.740000e-04,-0.08,5.72,5.5
-6.730000e-04,-0.08,5.72,5.3
-6.720000e-04,-0.08,5.72,5.5
-6.710000e-04,-0.08,5.72,5.5
-6.700000e-04,-0.16,5.72,5.5
-6.690000e-04,-0.08,5.72,5.3
-6.680000e-04,-0.08,5.72,5.3
-6.670000e-04,-0.08,5.88,5.7
-6.660000e-04,-0.08,5.8,5.5
-6.650000e-04,-0.08,5.8,5.5
-6.640000e-04,-0.08,5.8,5.5
-6.630000e-04,0,5.8,5.5
-6.620000e-04,0,5.72,5.3
-6.610000e-04,-0.08,5.8,5.1
-6.600000e-04,-0.08,5.8,5.5
-6.590000e-04,-0.08,5.8,5.3
-6.580000e-04,0,5.72,5.5
-6.570000e-04,-0.08,5.8,5.1
-6.560000e-04,0,5.8,5.5
-6.550000e-04,-0.08,5.8,5.5
-6.540000e-04,0,5.8,5.5
-6.530000e-04,-0.08,5.72,5.3
-6.520000e-04,-0.08,5.72,5.3
-6.510000e-04,-0.08,5.8,5.5
-6.500000e-04,-0.08,5.72,5.5
-6.490000e-04,-0.08,5.8,5.3
-6.480000e-04,-0.08,5.8,5.3
-6.470000e-04,-0.08,5.72,5.3
-6.460000e-04,-0.08,5.8,5.3
-6.450000e-04,-0.08,5.64,5.5
-6.440000e-04,-0.08,5.8,5.3
-6.430000e-04,-0.08,5.8,5.3
-6.420000e-04,-0.08,5.8,5.5
-6.410000e-04,0,5.8,5.3
-6.400000e-04,-0.08,5.8,5.5
-6.390000e-04,-0.08,5.8,5.3
-6.380000e-04,-0.08,5.8,5.5
-6.370000e-04,0,5.8,5.5
-6.360000e-04,-0.08,5.72,5.3
-6.350000e-04,-0.16,5.8,5.5
-6.340000e-04,0,5.72,5.3
-6.330000e-04,-0.16,5.8,5.3
-6.320000e-04,-0.08,5.88,5.3
-6.310000e-04,-0.08,5.8,5.5
-6.300000e-04,-0.16,5.8,5.5
-6.290000e-04,-0.16,5.72,5.3
-6.280000e-04,0,5.72,5.5
-6.270000e-04,-0.08,5.72,5.3
-6.260000e-04,-0.08,5.8,5.5
-6.250000e-04,-0.08,5.72,5.5
-6.240000e-04,-0.08,5.72,5.1
-6.230000e-04,-0.08,5.72,5.7
-6.220000e-04,0,5.8,5.5
-6.210000e-04,-0.08,5.8,5.5
-6.200000e-04,-0.08,5.72,5.3
-6.190000e-04,0,5.8,5.5
-6.180000e-04,-0.08,5.8,5.3
-6.170000e-04,-0.08,5.8,5.3
-6.160000e-04,0,5.8,5.5
-6.150000e-04,0,5.8,5.5
-6.140000e-04,-0.08,5.72,5.3
-6.130000e-04,0,5.8,5.5
-6.120000e-04,-0.08,5.8,5.3
-6.110000e-04,-0.08,5.88,5.5
-6.100000e-04,-0.08,5.72,5.3
-6.090000e-04,-0.08,5.8,5.5
-6.080000e-04,0,5.8,5.5
-6.070000e-04,-0.08,5.72,5.5
-6.060000e-04,0,5.8,5.5
-6.050000e-04,-0.08,5.72,5.5
-6.040000e-04,-0.08,5.72,5.3
-6.030000e-04,-0.08,5.88,5.3
-6.020000e-04,0,5.72,5.5
-6.010000e-04,-0.08,5.72,5.5
-6.000000e-04,0,5.88,5.5
-5.990000e-04,-0.08,5.72,5.5
-5.980000e-04,-0.08,5.8,5.5
-5.970000e-04,-0.08,5.72,5.3
-5.960000e-04,-0.08,5.8,5.3
-5.950000e-04,-0.08,5.8,5.3
-5.940000e-04,-0.08,5.8,5.5
-5.930000e-04,-0.08,5.64,5.3
-5.920000e-04,-0.08,5.8,5.5
-5.910000e-04,-0.08,5.8,5.5
-5.900000e-04,-0.08,5.72,5.5
-5.890000e-04,0,5.8,5.5
-5.880000e-04,-0.08,5.72,5.5
-5.870000e-04,0,5.8,5.3
-5.860000e-04,-0.08,5.72,5.5
-5.850000e-04,-0.08,5.8,5.5
-5.840000e-04,0,5.8,5.5
-5.830000e-04,-0.08,5.8,5.5
-5.820000e-04,-0.08,5.8,5.3
-5.810000e-04,-0.08,5.8,5.5
-5.800000e-04,-0.08,5.8,5.3
-5.790000e-04,-0.08,5.8,5.5
-5.780000e-04,0,5.8,5.5
-5.770000e-04,-0.08,5.8,5.3
-5.760000e-04,-0.08,5.8,5.7
-5.750000e-04,-0.16,5.72,5.3
-5.740000e-04,-0.08,5.72,5.3
-5.730000e-04,-0.08,5.8,5.5
-5.720000e-04,-0.08,5.72,5.5
-5.710000e-04,0,5.8,5.1
-5.700000e-04,-0.08,5.8,5.3
-5.690000e-04,0,5.72,5.3
-5.680000e-04,0,5.72,5.5
-5.670000e-04,0,5.72,5.3
-5.660000e-04,-0.08,5.72,5.3
-5.650000e-04,0,5.8,5.3
-5.640000e-04,-0.08,5.72,5.3
-5.630000e-04,-0.08,5.8,5.3
-5.620000e-04,-0.08,5.88,5.3
-5.610000e-04,-0.16,5.8,5.3
-5.600000e-04,-0.08,5.72,5.3
-5.590000e-04,-0.08,5.88,5.3
-5.580000e-04,-0.08,5.72,5.5
-5.570000e-04,-0.08,5.8,5.5
-5.560000e-04,-0.08,5.8,5.5
-5.550000e-04,0,5.8,5.3
-5.540000e-04,0,5.72,5.3
-5.530000e-04,0,5.8,5.5
-5.520000e-04,0,5.72,5.3
-5.510000e-04,-0.08,5.72,5.5
-5.500000e-04,-0.16,5.8,5.3
-5.490000e-04,-0.08,5.72,5.3
-5.480000e-04,-0.08,5.8,5.3
-5.470000e-04,-0.08,5.8,5.5
-5.460000e-04,-0.08,5.8,5.1
-5.450000e-04,-0.08,5.72,5.5
-5.440000e-04,-0.08,5.8,5.5
-5.430000e-04,-0.08,5.88,5.5
-5.420000e-04,-0.08,5.72,5.3
-5.410000e-04,-0.16,5.88,5.5
-5.400000e-04,-0.16,5.8,5.5
-5.390000e-04,-0.08,5.8,5.5
-5.380000e-04,-0.08,5.8,5.1
-5.370000e-04,-0.08,5.72,5.5
-5.360000e-04,0.08,5.8,5.3
-5.350000e-04,-0.08,5.8,5.5
-5.340000e-04,-0.16,5.8,5.3
-5.330000e-04,-0.08,5.8,5.3
-5.320000e-04,0,5.8,5.5
-5.310000e-04,-0.16,5.72,5.5
-5.300000e-04,-0.08,5.8,5.3
-5.290000e-04,0,5.8,5.5
-5.280000e-04,-0.16,5.72,5.3
-5.270000e-04,-0.08,5.72,5.3
-5.260000e-04,-0.08,5.72,5.5
-5.250000e-04,-0.16,5.8,5.3
-5.240000e-04,-0.08,5.8,5.3
-5.230000e-04,-0.08,5.72,5.3
-5.220000e-04,-0.08,5.8,5.3
-5.210000e-04,-0.08,5.88,5.5
-5.200000e-04,-0.08,5.8,5.5
-5.190000e-04,-0.08,5.72,5.5
-5.180000e-04,-0.08,5.8,5.5
-5.170000e-04,-0.08,1.16,2.5
-5.160000e-04,0,0.04,0.3
-5.150000e-04,-0.08,0.04,0.3
-5.140000e-04,-0.08,0.04,0.1
-5.130000e-04,-0.08,0.04,0.1
-5.120000e-04,-0.08,0.04,0.1
-5.110000e-04,-0.08,0.04,0.1
-5.100000e-04,-0.08,0.04,0.1
-5.090000e-04,-0.08,0.04,-0.1
-5.080000e-04,0,0.04,0.1
-5.070000e-04,0,0.04,0.1
-5.060000e-04,-0.16,0.04,0.1
-5.050000e-04,-0.08,0.04,0.1
-5.040000e-04,0,0.04,0.1
-5.030000e-04,0,0.04,-0.1
-5.020000e-04,0,-0.04,0.1
-5.010000e-04,-0.08,-0.04,-0.1
-5.000000e-04,0.08,0.04,-0.1
-4.990000e-04,-0.08,0.04,0.1
-4.980000e-04,-0.08,0.04,0.3
-4.970000e-04,-0.16,0.04,0.1
-4.960000e-04,-0.08,0.04,0.1
-4.950000e-04,-0.08,0.04,0.1
-4.940000e-04,-0.08,0.04,0.3
-4.930000e-04,0,0.04,0.1
-4.920000e-04,0,0.04,0.1
-4.910000e-04,-0.08,0.04,0.1
-4.900000e-04,0,0.04,0.1
-4.890000e-04,-0.08,0.04,0.1
-4.880000e-04,-0.08,0.04,0.1
-4.870000e-04,-0.08,0.04,0.1
-4.860000e-04,0,0.04,-0.1
-4.850000e-04,0.08,0.04,0.1
-4.840000e-04,0,0.04,0.3
-4.830000e-04,0,0.04,0.1
-4.820000e-04,-0.08,-0.04,0.1
-4.810000e-04,-0.08,0.12,0.1
-4.800000e-04,-0.08,0.04,0.3
-4.790000e-04,0,0.04,0.3
-4.780000e-04,-0.08,0.04,0.3
-4.770000e-04,0,0.04,0.1
-4.760000e-04,-0.08,0.04,0.1
-4.750000e-04,-0.08,0.04,0.1
-4.740000e-04,-0.08,0.04,0.1
-4.730000e-04,-0.08,0.04,0.5
-4.720000e-04,-0.08,0.04,0.3
-4.710000e-04,-0.08,0.04,0.1
-4.700000e-04,-0.08,0.04,0.1
-4.690000e-04,-0.16,0.04,0.1
-4.680000e-04,-0.08,-0.04,0.3
-4.670000e-04,0,0.04,-0.1
-4.660000e-04,-0.08,0.12,0.1
-4.650000e-04,-0.08,0.04,0.1
-4.640000e-04,0,0.04,-0.1
-4.630000e-04,-0.16,0.04,0.1
-4.620000e-04,-0.08,0.04,0.1
-4.610000e-04,-0.08,-0.04,0.1
-4.600000e-04,-0.08,0.04,0.1
-4.590000e-04,-0.08,-0.04,0.3
-4.580000e-04,-0.08,0.04,0.1
-4.570000e-04,-0.08,0.04,0.1
-4.560000e-04,-0.08,0.04,0.1
-4.550000e-04,0,0.04,0.1
-4.540000e-04,-0.08,0.04,-0.1
-4.530000e-04,-0.16,0.04,0.1
-4.520000e-04,0,0.04,0.1
-4.510000e-04,0,0.04,0.1
-4.500000e-04,-0.08,0.04,0.1
-4.490000e-04,-0.08,0.04,0.3
-4.480000e-04,0,-0.04,0.1
-4.470000e-04,-0.08,0.04,0.1
-4.460000e-04,0,0.04,0.1
-4.450000e-04,0,0.04,0.1
-4.440000e-04,0,0.04,0.1
-4.430000e-04,-0.08,0.04,-0.1
-4.420000e-04,0,-0.04,0.1
-4.410000e-04,-0.08,0.04,0.1
-4.400000e-04,-0.08,0.04,0.1
-4.390000e-04,-0.08,-0.04,0.3
-4.380000e-04,-0.08,0.04,-0.1
-4.370000e-04,-0.08,0.04,-0.1
-4.360000e-04,0,0.04,0.1
-4.350000e-04,0,0.04,-0.1
-4.340000e-04,-0.08,0.04,0.1
-4.330000e-04,-0.08,0.04,0.1
-4.320000e-04,-0.08,0.04,0.1
-4.310000e-04,-0.08,0.04,0.1
-4.300000e-04,-0.08,0.04,0.1
-4.290000e-04,-0.08,0.04,0.3
-4.280000e-04,-0.08,-0.04,0.1
-4.270000e-04,-0.08,0.04,0.1
-4.260000e-04,-0.08,0.04,0.1
-4.250000e-04,0,0.04,-0.1
-4.240000e-04,-0.08,0.04,0.1
-4.230000e-04,-0.08,0.12,0.1
-4.220000e-04,-0.08,0.04,-0.1
-4.210000e-04,0,0.04,0.1
-4.200000e-04,-0.08,0.04,0.1
-4.190000e-04,-0.08,0.04,-0.1
-4.180000e-04,-0.08,0.04,-0.1
-4.170000e-04,-0.08,0.04,0.1
-4.160000e-04,-0.08,0.04,0.3
-4.150000e-04,-0.08,0.04,0.1
-4.140000e-04,-0.08,0.04,0.3
-4.130000e-04,0,0.04,-0.1
-4.120000e-04,0,0.04,-0.1
-4.110000e-04,-0.08,0.04,0.1
-4.100000e-04,-0.08,0.04,0.1
-4.090000e-04,-0.16,0.04,0.3
-4.080000e-04,-0.08,0.04,0.1
-4.070000e-04,-0.08,0.04,-0.1
-4.060000e-04,-0.08,0.04,0.1
-4.050000e-04,-0.08,0.04,-0.1
-4.040000e-04,-0.16,0.04,0.1
-4.030000e-04,-0.08,0.04,0.1
-4.020000e-04,-0.08,0.04,-0.1
-4.010000e-04,-0.08,0.04,0.1
-4.000000e-04,-0.08,0.04,0.1
-3.990000e-04,-0.08,-0.04,0.1
-3.980000e-04,-0.08,0.04,-0.1
-3.970000e-04,-0.08,0.04,0.1
-3.960000e-04,-0.16,-0.04,0.1
-3.950000e-04,-0.08,-0.04,0.3
-3.940000e-04,-0.08,0.04,-0.1
-3.930000e-04,-0.08,0.04,0.1
-3.920000e-04,0,0.04,0.3
-3.910000e-04,-0.08,-0.04,0.1
-3.900000e-04,0,0.04,0.3
-3.890000e-04,-0.16,0.04,0.1
-3.880000e-04,0,0.04,0.1
-3.870000e-04,-0.08,-0.04,-0.1
-3.860000e-04,0,0.04,-0.1
-3.850000e-04,0,0.04,0.1
-3.840000e-04,-0.16,0.04,0.3
-3.830000e-04,-0.08,0.04,0.3
-3.820000e-04,-0.08,-0.04,0.1
-3.810000e-04,-0.08,0.04,0.1
-3.800000e-04,-0.08,0.04,0.3
-3.790000e-04,-0.08,0.04,0.1
-3.780000e-04,0,0.04,-0.1
-3.770000e-04,0,-0.04,-0.1
-3.760000e-04,0,0.04,0.1
-3.750000e-04,0,-0.04,0.1
-3.740000e-04,-0.08,0.04,0.1
-3.730000e-04,-0.08,0.04,0.3
-3.720000e-04,-0.08,0.04,0.1
-3.710000e-04,-0.16,-0.04,0.1
-3.700000e-04,-0.08,0.04,0.1
-3.690000e-04,-0.08,0.04,0.1
-3.680000e-04,-0.08,0.04,0.1
-3.670000e-04,0,0.04,0.1
-3.660000e-04,0,0.04,0.3
-3.650000e-04,-0.08,0.04,0.1
-3.640000e-04,-0.08,0.04,0.5
-3.630000e-04,0,0.04,0.1
-3.620000e-04,0,0.04,0.3
-3.610000e-04,-0.08,0.04,0.3
-3.600000e-04,-0.08,0.04,0.3
-3.590000e-04,-0.08,0.04,0.3
-3.580000e-04,0,0.04,0.1
-3.570000e-04,-0.16,0.04,0.1
-3.560000e-04,-0.08,0.04,0.1
-3.550000e-04,0,0.04,0.3
-3.540000e-04,-0.08,0.04,0.1
-3.530000e-04,-0.08,0.04,0.1
-3.520000e-04,0,0.04,0.1
-3.510000e-04,-0.08,0.04,0.1
-3.500000e-04,-0.08,0.04,0.1
-3.490000e-04,-0.08,0.04,0.3
-3.480000e-04,-0.08,0.04,0.1
-3.470000e-04,-0.08,0.04,0.1
-3.460000e-04,-0.08,0.04,0.1
-3.450000e-04,0,-0.04,0.1
-3.440000e-04,-0.08,0.04,0.1
-3.430000e-04,0,0.04,0.1
-3.420000e-04,-0.08,0.04,-0.1
-3.410000e-04,0,-0.04,0.1
-3.400000e-04,-0.08,0.04,0.1
-3.390000e-04,-0.16,0.04,0.3
-3.380000e-04,-0.08,0.04,0.1
-3.370000e-04,-0.08,0.04,0.1
-3.360000e-04,0,0.04,0.3
-3.350000e-04,-0.08,0.04,0.1
-3.340000e-04,-0.08,-0.04,0.1
-3.330000e-04,-0.08,0.04,0.3
-3.320000e-04,-0.08,0.04,-0.1
-3.310000e-04,-0.08,-0.04,-0.1
-3.300000e-04,-0.08,0.04,0.1
-3.290000e-04,-0.08,0.04,-0.1
-3.280000e-04,-0.08,0.04,0.1
-3.270000e-04,0,-0.04,0.3
-3.260000e-04,-0.08,0.04,0.1
-3.250000e-04,0,0.04,0.1
-3.240000e-04,-0.08,0.04,0.1
-3.230000e-04,-0.08,0.04,0.3
-3.220000e-04,-0.08,0.04,0.1
-3.210000e-04,0,0.04,0.1
-3.200000e-04,-0.08,0.04,0.1
-3.190000e-04,-0.16,0.04,0.1
-3.180000e-04,0,0.04,0.1
-3.170000e-04,0,0.04,0.1
-3.160000e-04,-0.08,0.04,0.1
-3.150000e-04,-0.08,-0.04,-0.1
-3.140000e-04,-0.08,0.04,-0.1
-3.130000e-04,-0.08,-0.04,0.1
-3.120000e-04,0,0.04,0.1
-3.110000e-04,-0.16,0.04,0.3
-3.100000e-04,-0.08,0.04,-0.1
-3.090000e-04,0,-0.04,-0.1
-3.080000e-04,-0.16,0.04,0.1
-3.070000e-04,0,0.04,0.3
-3.060000e-04,-0.08,0.04,0.1
-3.050000e-04,-0.08,0.04,0.1
-3.040000e-04,-0.08,0.04,0.1
-3.030000e-04,-0.08,-0.04,0.1
-3.020000e-04,-0.16,0.04,0.1
-3.010000e-04,-0.08,0.04,-0.1
-3.000000e-04,-0.08,0.04,0.1
-2.990000e-04,-0.08,0.04,0.1
-2.980000e-04,-0.08,0.04,0.3
-2.970000e-04,-0.08,0.04,0.1
-2.960000e-04,0,0.04,0.3
-2.950000e-04,0,0.04,0.1
-2.940000e-04,0,-0.04,0.1
-2.930000e-04,-0.08,0.04,0.1
-2.920000e-04,0,0.04,0.3
-2.910000e-04,0,0.04,0.1
-2.900000e-04,0,0.04,0.1
-2.890000e-04,-0.08,0.04,0.1
-2.880000e-04,-0.08,0.04,-0.1
-2.870000e-04,0,0.04,-0.1
-2.860000e-04,0,0.04,0.1
-2.850000e-04,-0.08,0.04,0.1
-2.840000e-04,0,0.04,0.1
-2.830000e-04,-0.16,0.04,0.1
-2.820000e-04,-0.08,0.04,0.3
-2.810000e-04,-0.08,0.04,0.3
-2.800000e-04,0,0.04,-0.1
-2.790000e-04,-0.16,0.04,0.3
-2.780000e-04,-0.08,-0.04,0.1
-2.770000e-04,0,0.04,0.1
-2.760000e-04,-0.08,0.04,0.1
