Data/SecondSound/20.0mtorr_150.0mm.csv

Model,MDO3014
Firmware Version,1.20

Waveform Type,ANALOG,,,
Point Format,Y,,,
Horizontal Units,s,,,
Horizontal Scale,0.001,,,
Horizontal Delay,0.00357,,,
Sample Interval,1e-06,,,
Record Length,10000,,,
Gating,0.0% to 100.0%,,,
Probe Attenuation,1,1,1,1
Vertical Units,V,V,V,V
Vertical Offset,0,0,0,0
Vertical Scale,2,5,10,0.002
Vertical Position,-3,-1.04,-0.94,0.98
,,,,
,,,,
,,,,
Label,,,,
TIME,CH1,CH2,CH3,CH4
-1.430000e-03,-0.005625,0.0351562,0.145312,-0.000461563
-1.429000e-03,-0.026875,-0.0414063,0.19375,-0.00065625
-1.428000e-03,0.0040625,0.0226562,0.270312,-0.00076125
-1.427000e-03,-0.00125,-0.0523438,0.34375,-0.00065625
-1.426000e-03,-0.00125,-0.028125,0.242188,-0.00068125
-1.425000e-03,-0.0115625,0.009375,0.317187,-0.000671563
-1.424000e-03,-0.0109375,0.021875,0.16875,-0.00064125
-1.423000e-03,-0.0009375,0.021875,0.270312,-0.00061125
-1.422000e-03,-0.0065625,-0.0546875,0.117188,-0.000706875
-1.421000e-03,-0.016875,-0.0171875,0.242188,-0.000636563
-1.420000e-03,-0.0215625,0.00859375,0.167188,-0.000806563
-1.419000e-03,-0.025625,-0.0515625,0.296875,-0.000755938
-1.418000e-03,-0.0409375,-0.00390625,0.242188,-0.000526875
-1.417000e-03,-0.00125,-0.040625,0.246875,-0.000610938
-1.416000e-03,-0.00625,0.0226562,0.192187,-0.000551875
-1.415000e-03,0.0034375,-0.0164063,0.217187,-0.000486875
-1.414000e-03,-0.0059375,0.0210937,0.217187,-0.000576563
-1.413000e-03,-0.02125,-0.0304687,0.267188,-0.000506875
-1.412000e-03,-0.000625,-0.0273438,0.170312,-0.000605625
-1.411000e-03,-0.02125,-0.0398438,0.167188,-0.00052125
-1.410000e-03,-0.0215625,0.009375,0.240625,-0.000681563
-1.409000e-03,-0.00125,-0.003125,0.19375,-0.000850938
-1.408000e-03,-0.03125,0.009375,0.242188,-0.00081625
-1.407000e-03,-0.00625,-0.0414063,0.292188,-0.000806563
-1.406000e-03,-0.0065625,0.0101562,0.24375,-0.00075625
-1.405000e-03,0.0040625,0.0101562,0.270312,-0.000700938
-1.404000e-03,-0.011875,0.009375,0.240625,-0.000781563
-1.403000e-03,0.0090625,-0.003125,0.24375,-0.00069125
-1.402000e-03,0.0034375,0.0328125,0.167188,-0.000756563
-1.401000e-03,-0.0015625,-0.053125,0.217187,-0.00057625
-1.400000e-03,-0.0165625,-0.00390625,0.195312,-0.000606563
-1.399000e-03,0.00375,-0.028125,0.195312,-0.000506875
-1.398000e-03,-0.00125,-0.003125,0.242188,-0.000555938
-1.397000e-03,-0.00625,0.034375,0.292188,-0.000535938
-1.396000e-03,-0.0065625,0.0601562,0.19375,-0.00052625
-1.395000e-03,-0.0015625,-0.0414063,0.265625,-0.000611563
-1.394000e-03,0.00375,0.0210937,0.267188,-0.000741563
-1.393000e-03,-0.0065625,-0.053125,0.19375,-0.00082625
-1.392000e-03,0.0084375,0.046875,0.19375,-0.000986563
-1.391000e-03,0.0090625,-0.0148437,0.19375,-0.00086125
-1.390000e-03,-0.006875,-0.0414063,0.217187,-0.000811563
-1.389000e-03,-0.0071875,-0.0796875,0.290625,-0.000591875
-1.388000e-03,-0.00125,-0.090625,0.34375,-0.000636563
-1.387000e-03,-0.0009375,-0.00234375,0.198438,-0.000750938
-1.386000e-03,-0.0015625,-0.0164063,0.342187,-0.000731875
-1.385000e-03,-0.0015625,-0.040625,0.242188,-0.000666563
-1.384000e-03,-0.0115625,-0.028125,0.24375,-0.00072625
-1.383000e-03,-0.0165625,-0.0164063,0.19375,-0.00058625
-1.382000e-03,-0.0115625,0.00859375,0.367188,-0.000541563
-1.381000e-03,0.013125,-0.0539062,0.192187,-0.000676875
-1.380000e-03,-0.0009375,-0.0523438,0.31875,-0.000585938
-1.379000e-03,-0.0159375,-0.0164063,0.321875,-0.00043625
-1.378000e-03,0.0034375,-0.028125,0.242188,-0.00048625
-1.377000e-03,-0.005625,0.0226562,0.31875,-0.00052625
-1.376000e-03,-0.02625,-0.028125,0.31875,-0.000425938
-1.375000e-03,-0.01125,-0.015625,0.26875,-0.00065125
-1.374000e-03,-0.021875,-0.0789063,0.09375,-0.000671563
-1.373000e-03,-0.0209375,0.0109375,0.21875,-0.000725938
-1.372000e-03,-0.0015625,-0.0046875,0.142188,-0.00069625
-1.371000e-03,0.0090625,-0.003125,0.192187,-0.000705938
-1.370000e-03,-0.006875,-0.028125,0.217187,-0.000661563
-1.369000e-03,-0.00625,-0.0164063,0.217187,-0.00070125
-1.368000e-03,-0.0165625,-0.065625,0.245313,-0.000556563
-1.367000e-03,-0.00125,-0.015625,0.267188,-0.000671563
-1.366000e-03,0.0140625,-0.0140625,0.320312,-0.000620938
-1.365000e-03,-0.0365625,0.021875,0.217187,-0.00063625
-1.364000e-03,-0.0259375,0.0359375,0.195312,-0.000545938
-1.363000e-03,0.01375,-0.015625,0.16875,-0.00073125
-1.362000e-03,-0.0115625,-0.0296875,0.215625,-0.000796563
-1.361000e-03,-0.02625,0.009375,0.21875,-0.00078625
-1.360000e-03,-0.0209375,-0.053125,0.29375,-0.00083125
-1.359000e-03,-0.0159375,-0.0273438,0.195312,-0.000630938
-1.358000e-03,-0.0165625,-0.0414063,0.31875,-0.00050625
-1.357000e-03,-0.001875,-0.028125,0.190625,-0.000641563
-1.356000e-03,-0.021875,-0.0289063,0.142188,-0.000626563
-1.355000e-03,0.009375,-0.00234375,0.220313,-0.00050125
-1.354000e-03,-0.0265625,-0.0164063,0.26875,-0.000525938
-1.353000e-03,0.0034375,-0.078125,0.16875,-0.00048625
-1.352000e-03,-0.0165625,-0.0289063,0.217187,-0.000616563
-1.351000e-03,0.01375,-0.078125,0.16875,-0.00050625
-1.350000e-03,-0.0265625,-0.053125,0.267188,-0.000576563
-1.349000e-03,-0.016875,-0.0296875,0.215625,-0.000526875
-1.348000e-03,-0.0159375,-0.028125,0.14375,-0.000485938
-1.347000e-03,-0.0109375,-0.00234375,0.295312,-0.00066125
-1.346000e-03,-0.02125,-0.0046875,0.240625,-0.000746563
-1.345000e-03,0.00375,-0.0148437,0.292188,-0.000725938
-1.344000e-03,-0.0165625,-0.053125,0.24375,-0.000646563
-1.343000e-03,0.0140625,-0.0148437,0.29375,-0.00074125
-1.342000e-03,-0.006875,-0.0296875,0.265625,-0.000681875
-1.341000e-03,-0.0059375,-0.0148437,0.220313,-0.000645938
-1.340000e-03,-0.0065625,-0.0164063,0.292188,-0.000766563
-1.339000e-03,-0.00625,-0.003125,0.170312,-0.00075125
-1.338000e-03,-0.00625,0.0210937,0.34375,-0.00085625
-1.337000e-03,-0.0215625,-0.015625,0.142188,-0.000691563
-1.336000e-03,-0.00625,-0.090625,0.220313,-0.000730938
-1.335000e-03,0.0034375,-0.0289063,0.19375,-0.00069125
-1.334000e-03,-0.0159375,-0.053125,0.245313,-0.00052125
-1.333000e-03,-0.00125,-0.0523438,0.195312,-0.00052125
-1.332000e-03,0.00375,0.0210937,0.19375,-0.00048625
-1.331000e-03,-0.03125,-0.065625,0.19375,-0.00037125
-1.330000e-03,-0.0065625,0.0328125,0.217187,-0.00054125
-1.329000e-03,-0.00125,-0.003125,0.21875,-0.000605938
-1.328000e-03,-0.0165625,-0.0289063,0.24375,-0.000475938
-1.327000e-03,-0.010625,0.0609375,0.220313,-0.000455938
-1.326000e-03,-0.0215625,-0.0539062,0.292188,-0.000416875
-1.325000e-03,-0.0115625,-0.053125,0.217187,-0.000496875
-1.324000e-03,0.00875,-0.065625,0.142188,-0.000496563
-1.323000e-03,-0.000625,-0.00234375,0.270312,-0.000555625
-1.322000e-03,-0.0059375,0.021875,0.315625,-0.000571875
-1.321000e-03,-0.0015625,0.009375,0.217187,-0.000551875
-1.320000e-03,-0.0265625,-0.0289063,0.16875,-0.000711563
-1.319000e-03,-0.01625,-0.078125,0.26875,-0.000521563
-1.318000e-03,-0.01625,-0.040625,0.21875,-0.000606563
-1.317000e-03,-0.0115625,0.0328125,0.215625,-0.000621563
-1.316000e-03,0.00375,-0.015625,0.371875,-0.000640938
-1.315000e-03,-0.0059375,0.0226562,0.19375,-0.000670938
-1.314000e-03,-0.0115625,-0.065625,0.117188,-0.000726563
-1.313000e-03,-0.01125,-0.015625,0.31875,-0.00051125
-1.312000e-03,-0.0009375,-0.003125,0.145312,-0.00054125
-1.311000e-03,-0.00625,-0.065625,0.220313,-0.000435938
-1.310000e-03,-0.00625,-0.0179688,0.215625,-0.000401875
-1.309000e-03,-0.00625,-0.028125,0.145312,-0.00044125
-1.308000e-03,-0.0165625,-0.0664062,0.267188,-0.000586875
-1.307000e-03,-0.0159375,-0.065625,0.267188,-0.00046125
-1.306000e-03,-0.00125,-0.028125,0.192187,-0.00039625
-1.305000e-03,-0.01125,-0.003125,0.31875,-0.00050125
-1.304000e-03,-0.00125,0.0101562,0.195312,-0.00065625
-1.303000e-03,-0.0065625,-0.028125,0.16875,-0.000776563
-1.302000e-03,-0.03625,-0.003125,0.267188,-0.00080625
-1.301000e-03,0.00375,-0.00234375,0.11875,-0.00077625
-1.300000e-03,-0.0109375,0.0226562,0.295312,-0.00074625
-1.299000e-03,0.0084375,-0.0414063,0.192187,-0.000631563
-1.298000e-03,-0.00625,-0.0289063,0.265625,-0.00065625
-1.297000e-03,0.0040625,-0.0273438,0.26875,-0.000630938
-1.296000e-03,-0.00125,-0.003125,0.245313,-0.00055625
-1.295000e-03,-0.0059375,0.0101562,0.221875,-0.000515625
-1.294000e-03,-0.001875,-0.0289063,0.167188,-0.000501563
-1.293000e-03,-0.006875,0.0210937,0.142188,-0.000606875
-1.292000e-03,-0.01125,-0.003125,0.21875,-0.000531563
-1.291000e-03,-0.0259375,-0.00234375,0.170312,-0.000705625
-1.290000e-03,-0.0165625,-0.0539062,0.192187,-0.000561563
-1.289000e-03,-0.0015625,-0.0414063,0.167188,-0.00056625
-1.288000e-03,-0.0165625,0.0328125,0.242188,-0.000356563
-1.287000e-03,-0.00125,-0.0398438,0.170312,-0.000375938
-1.286000e-03,-0.0015625,-0.0164063,0.267188,-0.000445938
-1.285000e-03,-0.0115625,-0.0789063,0.21875,-0.00054625
-1.284000e-03,-0.000625,-0.0773437,0.21875,-0.00070125
-1.283000e-03,0.004375,0.0109375,0.271875,-0.00057625
-1.282000e-03,-0.016875,-0.0304687,0.290625,-0.000531875
-1.281000e-03,-0.01125,0.00859375,0.14375,-0.00068125
-1.280000e-03,-0.0059375,-0.040625,0.26875,-0.00083125
-1.279000e-03,-0.0209375,-0.0148437,0.26875,-0.000740938
-1.278000e-03,-0.011875,0.0335937,0.267188,-0.000816875
-1.277000e-03,-0.0209375,0.0351562,0.245313,-0.00058625
-1.276000e-03,-0.0165625,0.0078125,0.192187,-0.000611875
-1.275000e-03,0.0040625,-0.0273438,0.242188,-0.00065625
-1.274000e-03,-0.0165625,-0.053125,0.19375,-0.000551563
-1.273000e-03,-0.0259375,0.0351562,0.246875,-0.00060625
-1.272000e-03,-0.0009375,0.0101562,0.170312,-0.00072125
-1.271000e-03,0.003125,0.0460937,0.367188,-0.000701563
-1.270000e-03,-0.02625,-0.0523438,0.26875,-0.000516563
-1.269000e-03,-0.01625,0.059375,0.19375,-0.000695938
-1.268000e-03,-0.0109375,-0.015625,0.29375,-0.00079625
-1.267000e-03,-0.0215625,-0.00390625,0.217187,-0.000916563
-1.266000e-03,0.0084375,-0.00390625,0.24375,-0.000641563
-1.265000e-03,0.0084375,0.0460937,0.242188,-0.000636875
-1.264000e-03,-0.00625,-0.003125,0.220313,-0.00073625
-1.263000e-03,-0.00625,-0.0773437,0.19375,-0.00081125
-1.262000e-03,0.00375,-0.0421875,0.365625,-0.00067125
-1.261000e-03,-0.0015625,-0.0164063,0.165625,-0.000726875
-1.260000e-03,-0.0065625,0.0210937,0.19375,-0.000896875
-1.259000e-03,-0.0059375,-0.053125,0.221875,-0.000735625
-1.258000e-03,0.00875,-0.015625,0.26875,-0.000690938
-1.257000e-03,-0.0215625,-0.0289063,0.220313,-0.000416875
-1.256000e-03,-0.0009375,-0.015625,0.245313,-0.00065125
-1.255000e-03,0.00875,0.009375,0.31875,-0.00070625
-1.254000e-03,-0.00625,-0.0414063,0.192187,-0.000481563
-1.253000e-03,-0.02125,0.021875,0.170312,-0.00038125
-1.252000e-03,-0.0209375,-0.015625,0.221875,-0.00053125
-1.251000e-03,-0.020625,0.0101562,0.11875,-0.00032625
-1.250000e-03,0.0028125,-0.01875,0.340625,-0.000332188
-1.249000e-03,-0.00625,-0.040625,0.29375,-0.00035125
-1.248000e-03,0.00875,-0.0148437,0.26875,-0.00039125
-1.247000e-03,-0.00625,-0.053125,0.29375,-0.00048625
-1.246000e-03,-0.021875,-0.0546875,0.21875,-0.00055125
-1.245000e-03,-0.0009375,-0.00234375,0.19375,-0.000495938
-1.244000e-03,-0.00625,0.0335937,0.315625,-0.000636875
-1.243000e-03,0.0034375,-0.053125,0.342187,-0.00072625
-1.242000e-03,-0.011875,-0.028125,0.0921875,-0.00060625
-1.241000e-03,0.0040625,-0.0523438,0.170312,-0.000415938
-1.240000e-03,-0.0209375,-0.015625,0.21875,-0.000596563
-1.239000e-03,0.003125,-0.0421875,0.16875,-0.00056625
-1.238000e-03,-0.01125,-0.003125,0.21875,-0.000656563
-1.237000e-03,-0.0059375,-0.0289063,0.170312,-0.000760938
-1.236000e-03,-0.0109375,-0.0648438,0.24375,-0.000875313
-1.235000e-03,-0.0009375,0.0351562,0.370313,-0.00076125
-1.234000e-03,-0.0115625,-0.003125,0.24375,-0.000721563
-1.233000e-03,0.0034375,-0.015625,0.090625,-0.000661563
-1.232000e-03,-0.005625,0.0351562,0.245313,-0.000680938
-1.231000e-03,-0.03125,0.009375,0.24375,-0.000690938
-1.230000e-03,-0.0065625,0.0203125,0.167188,-0.000621875
-1.229000e-03,-0.02625,0.009375,0.140625,-0.000441875
-1.228000e-03,0.0134375,-0.015625,0.31875,-0.000651563
-1.227000e-03,0.004375,-0.00234375,0.346875,-0.000740625
-1.226000e-03,0.00375,-0.040625,0.345313,-0.00074125
-1.225000e-03,-0.0015625,-0.0414063,0.217187,-0.000791875
-1.224000e-03,0.0334375,-0.015625,0.170312,-0.000561563
-1.223000e-03,-0.0009375,-0.053125,0.24375,-0.000545938
-1.222000e-03,-0.0065625,0.021875,0.242188,-0.00074125
-1.221000e-03,-0.0015625,-0.028125,0.267188,-0.00089125
-1.220000e-03,-0.0159375,0.034375,0.417188,-0.000805938
-1.219000e-03,-0.00625,-0.0398438,0.220313,-0.00083625
-1.218000e-03,-0.026875,-0.00390625,0.142188,-0.000981875
-1.217000e-03,-0.00125,0.009375,0.292188,-0.000745938
-1.216000e-03,0.004375,0.0234375,0.220313,-0.00071125
-1.215000e-03,-0.0115625,-0.140625,0.24375,-0.00083625
-1.214000e-03,-0.001875,-0.0171875,0.24375,-0.000796563
-1.213000e-03,-0.00625,-0.040625,0.31875,-0.000860938
-1.212000e-03,-0.0215625,-0.040625,0.342187,-0.000876875
-1.211000e-03,-0.03125,0.00859375,0.192187,-0.00075625
-1.210000e-03,-0.0165625,-0.0789063,0.267188,-0.000641875
-1.209000e-03,0.004375,-0.040625,0.245313,-0.000625625
-1.208000e-03,-0.0065625,-0.003125,0.242188,-0.000771563
-1.207000e-03,-0.011875,0.0210937,0.24375,-0.00091125
-1.206000e-03,-0.0009375,-0.0414063,0.245313,-0.00063625
-1.205000e-03,-0.01125,-0.065625,0.217187,-0.000576563
-1.204000e-03,-0.0109375,-0.0015625,0.345313,-0.000550625
-1.203000e-03,-0.0165625,-0.015625,0.245313,-0.00050625
-1.202000e-03,-0.0165625,-0.053125,0.19375,-0.000486875
-1.201000e-03,-0.0215625,-0.0164063,0.295312,-0.000271563
-1.200000e-03,-0.0159375,-0.0273438,0.270312,-0.00046125
-1.199000e-03,-0.0265625,-0.065625,0.217187,-0.00045125
-1.198000e-03,0.003125,-0.0289063,0.21875,-0.000521563
-1.197000e-03,-0.0365625,-0.0171875,0.192187,-0.000391563
-1.196000e-03,-0.01625,-0.028125,0.140625,-0.00044625
-1.195000e-03,-0.0153125,0.0484375,0.148438,-0.000655625
-1.194000e-03,0.0090625,0.021875,0.220313,-0.000580938
-1.193000e-03,-0.0365625,-0.0296875,0.31875,-0.000516563
-1.192000e-03,-0.00625,0.009375,0.29375,-0.000416563
-1.191000e-03,-0.0065625,0.0460937,0.21875,-0.000386563
-1.190000e-03,-0.00125,-0.053125,0.24375,-0.000720938
-1.189000e-03,-0.0115625,0.00859375,0.34375,-0.000545938
-1.188000e-03,-0.01125,-0.0273438,0.295312,-0.00058625
-1.187000e-03,0.00875,-0.040625,0.21875,-0.000525938
-1.186000e-03,-0.006875,-0.0171875,0.242188,-0.000281875
-1.185000e-03,-0.0065625,-0.0289063,0.117188,-0.000206563
-1.184000e-03,-0.0109375,-0.00234375,0.196875,-0.000160938
-1.183000e-03,-0.00125,-0.040625,0.292188,-0.000371563
-1.182000e-03,-0.011875,-0.0664062,0.26875,-0.00043125
-1.181000e-03,-0.0165625,0.00859375,0.29375,-0.00044625
-1.180000e-03,-0.006875,-0.0171875,0.165625,-0.000591875
-1.179000e-03,-0.02625,0.021875,0.21875,-0.00047625
-1.178000e-03,-0.0165625,-0.0164063,0.242188,-0.000496875
-1.177000e-03,-0.02125,-0.0273438,0.21875,-0.00050125
-1.176000e-03,-0.01625,-0.0164063,0.24375,-0.000491563
-1.175000e-03,0.0034375,0.0210937,0.26875,-0.000621563
-1.174000e-03,-0.00125,-0.0289063,0.242188,-0.000561563
-1.173000e-03,0.0034375,-0.0789063,0.320312,-0.00064125
-1.172000e-03,-0.0159375,0.0476563,0.220313,-0.000730938
-1.171000e-03,-0.00625,-0.0523438,0.26875,-0.00060125
-1.170000e-03,-0.01625,-0.0289063,0.29375,-0.000721563
-1.169000e-03,-0.0365625,-0.0414063,0.11875,-0.00075125
-1.168000e-03,-0.020625,-0.00234375,0.24375,-0.00078625
-1.167000e-03,-0.02625,-0.003125,0.145312,-0.00069125
-1.166000e-03,0.01375,-0.028125,0.26875,-0.000771563
-1.165000e-03,-0.0015625,-0.0679688,0.140625,-0.000596563
-1.164000e-03,-0.006875,-0.00390625,0.292188,-0.000556563
-1.163000e-03,-0.015625,-0.0140625,0.245313,-0.000485938
-1.162000e-03,-0.0109375,-0.00234375,0.195312,-0.000655938
-1.161000e-03,-0.0315625,-0.00390625,0.215625,-0.00069125
-1.160000e-03,-0.02125,0.00859375,0.24375,-0.00059625
-1.159000e-03,0.0040625,-0.00390625,0.317187,-0.000640938
-1.158000e-03,-0.01125,-0.0648438,0.170312,-0.000506563
-1.157000e-03,-0.00125,-0.015625,0.29375,-0.000535938
-1.156000e-03,-0.0009375,-0.028125,0.170312,-0.00043625
-1.155000e-03,-0.0009375,-0.028125,0.195312,-0.00044625
-1.154000e-03,0.00375,-0.00390625,0.167188,-0.000531563
-1.153000e-03,-0.0065625,-0.0789063,0.14375,-0.000406563
-1.152000e-03,-0.0009375,-0.0140625,0.220313,-0.000405938
-1.151000e-03,-0.0159375,-0.0148437,0.21875,-0.00051125
-1.150000e-03,-0.01125,-0.00390625,0.217187,-0.000466563
-1.149000e-03,-0.0159375,0.021875,0.317187,-0.00052125
-1.148000e-03,-0.0271875,-0.0164063,0.217187,-0.000421563
-1.147000e-03,-0.0115625,-0.053125,0.21875,-0.000516563
-1.146000e-03,-0.0115625,-0.0789063,0.217187,-0.000666563
-1.145000e-03,-0.0009375,-0.003125,0.417188,-0.00056125
-1.144000e-03,0.0034375,0.021875,0.267188,-0.00051125
-1.143000e-03,-0.0165625,-0.053125,0.265625,-0.00059125
-1.142000e-03,-0.00625,-0.015625,0.295312,-0.000760938
-1.141000e-03,0.0034375,0.0203125,0.29375,-0.000686875
-1.140000e-03,0.0040625,0.0726562,0.270312,-0.000505938
-1.139000e-03,-0.02625,0.0351562,0.220313,-0.00064625
-1.138000e-03,-0.00125,-0.00390625,0.24375,-0.00070125
-1.137000e-03,-0.0165625,0.046875,0.26875,-0.000791563
-1.136000e-03,-0.0415625,-0.015625,0.36875,-0.000890938
-1.135000e-03,-0.0159375,-0.028125,0.217187,-0.000671875
-1.134000e-03,-0.00625,0.034375,0.24375,-0.00080125
-1.133000e-03,-0.0265625,-0.015625,0.090625,-0.000681875
-1.132000e-03,0.00875,-0.00390625,0.267188,-0.000766563
-1.131000e-03,-0.03625,0.0976562,0.19375,-0.000630625
-1.130000e-03,-0.0015625,-0.028125,0.21875,-0.00069625
-1.129000e-03,0.0034375,-0.028125,0.167188,-0.000656563
-1.128000e-03,-0.0265625,0.0101562,0.217187,-0.00053125
-1.127000e-03,-0.02125,-0.053125,0.117188,-0.00068625
-1.126000e-03,-0.01625,-0.053125,0.21875,-0.000636563
-1.125000e-03,-0.00125,-0.015625,0.270312,-0.000601563
-1.124000e-03,-0.0159375,0.0210937,0.21875,-0.000621563
-1.123000e-03,-0.0159375,-0.00234375,0.292188,-0.000765938
-1.122000e-03,0.00875,-0.0289063,0.217187,-0.000621563
-1.121000e-03,-0.00625,0.0226562,0.217187,-0.00058125
-1.120000e-03,0.0090625,0.021875,0.26875,-0.000635938
-1.119000e-03,-0.0065625,-0.0664062,0.24375,-0.000736563
-1.118000e-03,-0.0015625,-0.0539062,0.142188,-0.000606563
-1.117000e-03,-0.0009375,0.0351562,0.16875,-0.000610938
-1.116000e-03,0.00375,-0.003125,0.292188,-0.000486563
-1.115000e-03,-0.0159375,0.034375,0.19375,-0.00056625
-1.114000e-03,0.0084375,-0.0414063,0.215625,-0.000371875
-1.113000e-03,-0.02625,-0.015625,0.295312,-0.000505938
-1.112000e-03,-0.0065625,-0.0164063,0.192187,-0.000566563
-1.111000e-03,0.00375,-0.0546875,0.292188,-0.00059625
-1.110000e-03,-0.01625,0.009375,0.342187,-0.00080625
-1.109000e-03,0.0084375,-0.00390625,0.31875,-0.000771563
-1.108000e-03,0.00875,-0.0148437,0.270312,-0.000600938
-1.107000e-03,-0.0009375,-0.0539062,0.29375,-0.00067125
-1.106000e-03,-0.01625,0.0210937,0.31875,-0.000786563
-1.105000e-03,-0.0115625,0.009375,0.19375,-0.000821563
-1.104000e-03,0.0034375,0.00859375,0.217187,-0.000955938
-1.103000e-03,-0.00125,-0.0273438,0.16875,-0.00084125
-1.102000e-03,0.00875,0.00859375,0.19375,-0.00076625
-1.101000e-03,0.0034375,0.009375,0.292188,-0.000776563
-1.100000e-03,-0.0265625,-0.0414063,0.265625,-0.00070625
-1.099000e-03,-0.0059375,-0.0398438,0.245313,-0.000815625
-1.098000e-03,-0.0059375,-0.0164063,0.26875,-0.00066625
-1.097000e-03,-0.0171875,-0.0664062,0.167188,-0.000721875
-1.096000e-03,0.0034375,0.00859375,0.242188,-0.000601563
-1.095000e-03,-0.01625,-0.0539062,0.24375,-0.00052125
-1.094000e-03,-0.01625,-0.003125,0.267188,-0.000536563
-1.093000e-03,-0.01125,-0.065625,0.14375,-0.000505938
-1.092000e-03,-0.00625,0.009375,0.19375,-0.00067125
-1.091000e-03,-0.0009375,-0.040625,0.26875,-0.000690938
-1.090000e-03,-0.0165625,-0.040625,0.240625,-0.00069625
-1.089000e-03,-0.011875,0.009375,0.21875,-0.00060125
-1.088000e-03,-0.010625,-0.0148437,0.195312,-0.000690938
-1.087000e-03,-0.00125,-0.0414063,0.292188,-0.000556563
-1.086000e-03,-0.006875,-0.065625,0.242188,-0.000696563
-1.085000e-03,-0.02625,0.034375,0.295312,-0.000705938
-1.084000e-03,-0.0115625,-0.003125,0.19375,-0.00068625
-1.083000e-03,-0.01125,0.0203125,0.217187,-0.000701563
-1.082000e-03,-0.0115625,0.00859375,0.292188,-0.000641563
-1.081000e-03,-0.02125,0.0359375,0.170312,-0.000610938
-1.080000e-03,-0.0065625,0.00859375,0.26875,-0.00046625
