Data/SecondSound/27.4mtorr_150.5mm.csv

Model,MDO3014
Firmware Version,1.20

Waveform Type,ANALOG,,,
Point Format,Y,,,
Horizontal Units,s,,,
Horizontal Scale,0.001,,,
Horizontal Delay,0.00357,,,
Sample Interval,1e-06,,,
Record Length,10000,,,
Gating,0.0% to 100.0%,,,
Probe Attenuation,1,1,1,1
Vertical Units,V,V,V,V
Vertical Offset,0,0,0,0
Vertical Scale,2,5,10,0.002
Vertical Position,-3,-1.04,-0.94,0.98
,,,,
,,,,
,,,,
Label,,,,
TIME,CH1,CH2,CH3,CH4
-1.430000e-03,-0.0259375,-0.0398438,0.21875,-0.000520938
-1.429000e-03,-0.0065625,-0.015625,0.267188,-0.00056125
-1.428000e-03,-0.0209375,0.0234375,0.296875,-0.00091625
-1.427000e-03,-0.0265625,0.034375,0.31875,-0.00080125
-1.426000e-03,-0.00125,-0.065625,0.242188,-0.00101125
-1.425000e-03,-0.0259375,-0.040625,0.26875,-0.000866563
-1.424000e-03,-0.0459375,0.00859375,0.26875,-0.000776563
-1.423000e-03,-0.01625,-0.040625,0.21875,-0.000700625
-1.422000e-03,-0.056875,0.0335937,0.267188,-0.000746563
-1.421000e-03,-0.0215625,-0.0164063,0.265625,-0.00075125
-1.420000e-03,-0.021875,-0.003125,0.192187,-0.00095125
-1.419000e-03,-0.020625,-0.0132813,0.196875,-0.000895625
-1.418000e-03,-0.01125,-0.053125,0.217187,-0.000591563
-1.417000e-03,-0.02125,0.021875,0.26875,-0.00069625
-1.416000e-03,-0.02125,0.009375,0.320312,-0.000506563
-1.415000e-03,-0.011875,0.0585938,0.242188,-0.000566563
-1.414000e-03,-0.0165625,-0.028125,0.24375,-0.00044125
-1.413000e-03,0.008125,-0.0296875,0.21875,-0.000571875
-1.412000e-03,-0.0159375,0.0601562,0.196875,-0.000550938
-1.411000e-03,-0.0259375,-0.0523438,0.24375,-0.00064625
-1.410000e-03,-0.00625,-0.0429688,0.14375,-0.000616563
-1.409000e-03,-0.0159375,-0.028125,0.26875,-0.00071625
-1.408000e-03,-0.01625,0.009375,0.29375,-0.00063625
-1.407000e-03,-0.0215625,0.00859375,0.242188,-0.000730938
-1.406000e-03,-0.03625,-0.0296875,0.320312,-0.000606563
-1.405000e-03,-0.0009375,-0.0398438,0.270312,-0.000776563
-1.404000e-03,-0.026875,-0.0421875,0.190625,-0.00085125
-1.403000e-03,-0.0115625,-0.0148437,0.342187,-0.000891563
-1.402000e-03,-0.0215625,-0.0421875,0.267188,-0.000776875
-1.401000e-03,-0.0215625,-0.0414063,0.19375,-0.000796563
-1.400000e-03,-0.03625,-0.0289063,0.245313,-0.00060125
-1.399000e-03,-0.0309375,-0.015625,0.242188,-0.00067625
-1.398000e-03,-0.01125,0.034375,0.31875,-0.00072125
-1.397000e-03,-0.02625,0.009375,0.21875,-0.000841563
-1.396000e-03,-0.01625,0.021875,0.29375,-0.000726563
-1.395000e-03,-0.03625,-0.0164063,0.24375,-0.00070625
-1.394000e-03,-0.0115625,0.00859375,0.192187,-0.000591563
-1.393000e-03,-0.0409375,-0.0523438,0.24375,-0.00088125
-1.392000e-03,-0.0159375,0.009375,0.195312,-0.000685938
-1.391000e-03,-0.00625,-0.065625,0.220313,-0.000511563
-1.390000e-03,-0.0415625,-0.00390625,0.192187,-0.000576563
-1.389000e-03,-0.0315625,-0.0421875,0.292188,-0.000786563
-1.388000e-03,-0.0215625,-0.0164063,0.24375,-0.000816563
-1.387000e-03,-0.035625,0.0117188,0.321875,-0.000945313
-1.386000e-03,-0.0315625,-0.0289063,0.24375,-0.000946563
-1.385000e-03,-0.0215625,-0.003125,0.06875,-0.000905938
-1.384000e-03,-0.0165625,0.009375,0.220313,-0.000746563
-1.383000e-03,-0.01125,-0.053125,0.292188,-0.00074625
-1.382000e-03,-0.00625,-0.065625,0.167188,-0.00100594
-1.381000e-03,-0.0071875,-0.0164063,0.115625,-0.000696563
-1.380000e-03,-0.0309375,-0.0523438,0.245313,-0.000995938
-1.379000e-03,-0.0159375,0.0101562,0.31875,-0.00086625
-1.378000e-03,-0.02625,-0.0289063,0.217187,-0.000976563
-1.377000e-03,-0.03125,-0.0273438,0.24375,-0.00080125
-1.376000e-03,-0.01125,-0.015625,0.26875,-0.00081125
-1.375000e-03,-0.02125,-0.015625,0.29375,-0.000901563
-1.374000e-03,-0.01125,-0.0414063,0.367188,-0.000841563
-1.373000e-03,-0.0059375,-0.0648438,0.195312,-0.00104094
-1.372000e-03,-0.0215625,0.00859375,0.215625,-0.000691875
-1.371000e-03,-0.03125,-0.078125,0.09375,-0.000885625
-1.370000e-03,-0.0115625,-0.00390625,0.240625,-0.000776563
-1.369000e-03,-0.0165625,0.046875,0.16875,-0.00085625
-1.368000e-03,-0.0215625,0.0101562,0.24375,-0.000776563
-1.367000e-03,-0.0259375,0.0210937,0.29375,-0.000910938
-1.366000e-03,-0.0315625,-0.040625,0.270312,-0.00083625
-1.365000e-03,-0.00125,0.0210937,0.26875,-0.000780938
-1.364000e-03,-0.02125,-0.0523438,0.271875,-0.000855938
-1.363000e-03,-0.0165625,-0.0289063,0.29375,-0.000881563
-1.362000e-03,-0.0065625,-0.0171875,0.34375,-0.00110719
-1.361000e-03,-0.015625,-0.053125,0.26875,-0.00100125
-1.360000e-03,-0.01625,0.009375,0.220313,-0.00107156
-1.359000e-03,-0.005625,-0.0148437,0.270312,-0.00105156
-1.358000e-03,-0.016875,-0.0539062,0.267188,-0.00104156
-1.357000e-03,-0.02625,0.0210937,0.190625,-0.000966563
-1.356000e-03,-0.0165625,-0.0289063,0.295312,-0.00100688
-1.355000e-03,-0.0259375,-0.0015625,0.146875,-0.000835938
-1.354000e-03,-0.026875,0.00859375,0.16875,-0.000966563
-1.353000e-03,-0.04125,0.009375,0.317187,-0.00070625
-1.352000e-03,-0.00625,-0.003125,0.217187,-0.000676875
-1.351000e-03,-0.01125,-0.028125,0.21875,-0.000721563
-1.350000e-03,-0.03125,-0.053125,0.21875,-0.00074125
-1.349000e-03,-0.041875,-0.0289063,0.165625,-0.000736875
-1.348000e-03,-0.0209375,-0.0273438,0.31875,-0.00087125
-1.347000e-03,0.0040625,0.0101562,0.16875,-0.000820938
-1.346000e-03,-0.01625,-0.053125,0.265625,-0.00103656
-1.345000e-03,0.00375,-0.028125,0.292188,-0.000945938
-1.344000e-03,-0.02125,-0.015625,0.295312,-0.00103594
-1.343000e-03,-0.01125,-0.015625,0.245313,-0.00091625
-1.342000e-03,-0.016875,-0.0414063,0.315625,-0.00110156
-1.341000e-03,-0.0209375,0.034375,0.24375,-0.000920938
-1.340000e-03,-0.0215625,0.009375,0.342187,-0.00101688
-1.339000e-03,-0.02125,-0.003125,0.245313,-0.000790938
-1.338000e-03,-0.041875,0.046875,0.215625,-0.000786563
-1.337000e-03,-0.031875,0.034375,0.315625,-0.00081625
-1.336000e-03,-0.0059375,0.0351562,0.26875,-0.00079125
-1.335000e-03,-0.0265625,-0.040625,0.192187,-0.000576563
-1.334000e-03,-0.04625,-0.003125,0.26875,-0.000591563
-1.333000e-03,-0.0159375,0.009375,0.21875,-0.00074625
-1.332000e-03,-0.02625,-0.00390625,0.21875,-0.00075625
-1.331000e-03,-0.02125,-0.015625,0.342187,-0.000876563
-1.330000e-03,-0.0065625,-0.00390625,0.167188,-0.000646875
-1.329000e-03,-0.01625,0.0101562,0.342187,-0.000780938
-1.328000e-03,-0.00625,-0.0539062,0.26875,-0.000585938
-1.327000e-03,-0.0359375,0.0351562,0.295312,-0.000615938
-1.326000e-03,-0.00625,-0.00390625,0.192187,-0.000676563
-1.325000e-03,-0.036875,0.00859375,0.217187,-0.000771563
-1.324000e-03,-0.0065625,0.0210937,0.19375,-0.00095125
-1.323000e-03,-0.0359375,0.0226562,0.295312,-0.00116125
-1.322000e-03,-0.0215625,0.0078125,0.317187,-0.000826563
-1.321000e-03,-0.0159375,-0.0164063,0.0921875,-0.00102156
-1.320000e-03,-0.03625,0.00859375,0.11875,-0.000961563
-1.319000e-03,-0.00125,-0.028125,0.24375,-0.000855938
-1.318000e-03,-0.00625,-0.040625,0.267188,-0.00089125
-1.317000e-03,-0.0115625,-0.0539062,0.367188,-0.00078125
-1.316000e-03,-0.0209375,-0.00234375,0.245313,-0.000860938
-1.315000e-03,-0.0259375,0.0226562,0.26875,-0.00094125
-1.314000e-03,-0.036875,-0.0421875,0.290625,-0.00100719
-1.313000e-03,-0.0409375,0.021875,0.29375,-0.00102625
-1.312000e-03,-0.00625,-0.0273438,0.245313,-0.000855625
-1.311000e-03,-0.03625,-0.0648438,0.19375,-0.00102625
-1.310000e-03,-0.0265625,-0.00546875,0.165625,-0.000776563
-1.309000e-03,-0.0209375,-0.003125,0.220313,-0.00081625
-1.308000e-03,-0.0315625,0.0078125,0.142188,-0.000851563
-1.307000e-03,-0.00625,0.009375,0.11875,-0.00066125
-1.306000e-03,-0.016875,-0.015625,0.217187,-0.000736563
-1.305000e-03,-0.0265625,-0.028125,0.21875,-0.00091625
-1.304000e-03,-0.00625,-0.0148437,0.270312,-0.00082625
-1.303000e-03,-0.01625,-0.103125,0.267188,-0.00095125
-1.302000e-03,-0.0159375,-0.053125,0.240625,-0.00111156
-1.301000e-03,-0.0359375,-0.103125,0.220313,-0.00115125
-1.300000e-03,-0.0259375,-0.040625,0.21875,-0.00106625
-1.299000e-03,-0.02125,-0.0171875,0.267188,-0.00104656
-1.298000e-03,-0.02125,-0.00234375,0.317187,-0.00102188
-1.297000e-03,0.0090625,0.021875,0.242188,-0.00084625
-1.296000e-03,-0.01125,-0.0273438,0.19375,-0.000765938
-1.295000e-03,-0.0109375,-0.040625,0.270312,-0.000710938
-1.294000e-03,-0.03625,0.021875,0.117188,-0.000721563
-1.293000e-03,-0.0215625,0.00859375,0.240625,-0.000861875
-1.292000e-03,-0.0065625,0.009375,0.317187,-0.00099125
-1.291000e-03,-0.0309375,-0.0390625,0.21875,-0.00092625
-1.290000e-03,-0.02125,-0.0289063,0.217187,-0.00111156
-1.289000e-03,-0.03625,0.0203125,0.240625,-0.00106625
-1.288000e-03,-0.0265625,-0.0414063,0.26875,-0.00110156
-1.287000e-03,-0.03125,0.0101562,0.09375,-0.000945938
-1.286000e-03,-0.0365625,-0.015625,0.26875,-0.00101625
-1.285000e-03,-0.001875,-0.0164063,0.292188,-0.000641875
-1.284000e-03,-0.0159375,-0.028125,0.29375,-0.000705938
-1.283000e-03,-0.00125,-0.0515625,0.246875,-0.000750938
-1.282000e-03,-0.0115625,0.0078125,0.189063,-0.000801875
-1.281000e-03,-0.00625,-0.00234375,0.192187,-0.000670938
-1.280000e-03,-0.0209375,-0.0015625,0.270312,-0.00070625
-1.279000e-03,-0.0309375,0.0226562,0.120313,-0.00118125
-1.278000e-03,-0.031875,-0.0171875,0.217187,-0.00077125
-1.277000e-03,-0.0159375,0.009375,0.271875,-0.000905938
-1.276000e-03,-0.0215625,-0.0046875,0.265625,-0.000921875
-1.275000e-03,-0.03625,-0.040625,0.29375,-0.000911563
-1.274000e-03,-0.0109375,-0.0539062,0.21875,-0.00103625
-1.273000e-03,-0.0359375,0.009375,0.270312,-0.00096625
-1.272000e-03,-0.02625,0.0226562,0.245313,-0.00109094
-1.271000e-03,-0.0315625,0.0195312,0.240625,-0.00103688
-1.270000e-03,-0.0009375,0.0203125,0.21875,-0.000981875
-1.269000e-03,-0.00625,-0.028125,0.24375,-0.000945938
-1.268000e-03,-0.01625,0.0351562,0.195312,-0.000815938
-1.267000e-03,-0.0165625,-0.00390625,0.24375,-0.000965938
-1.266000e-03,-0.0415625,-0.0539062,0.26875,-0.000606875
-1.265000e-03,-0.02125,-0.00390625,0.192187,-0.00064625
-1.264000e-03,-0.02125,0.021875,0.195312,-0.000735938
-1.263000e-03,-0.02125,-0.0523438,0.195312,-0.000566563
-1.262000e-03,-0.021875,-0.0414063,0.217187,-0.00097125
-1.261000e-03,-0.0015625,-0.0546875,0.267188,-0.000726563
-1.260000e-03,-0.02125,-0.003125,0.19375,-0.000986563
-1.259000e-03,-0.000625,-0.00234375,0.221875,-0.000775938
-1.258000e-03,-0.00625,-0.0914063,0.24375,-0.00105156
-1.257000e-03,-0.026875,-0.0539062,0.29375,-0.00098125
-1.256000e-03,-0.0365625,-0.028125,0.195312,-0.000845938
-1.255000e-03,-0.0165625,0.00859375,0.31875,-0.000936563
-1.254000e-03,-0.02625,-0.0539062,0.270312,-0.00065625
-1.253000e-03,-0.03625,-0.003125,0.26875,-0.00074625
-1.252000e-03,-0.0259375,-0.028125,0.270312,-0.000700625
-1.251000e-03,-0.01625,-0.053125,0.246875,-0.00082125
-1.250000e-03,-0.036875,-0.0421875,0.189063,-0.000922188
-1.249000e-03,-0.00625,0.0585938,0.292188,-0.000971875
-1.248000e-03,-0.0059375,-0.00234375,0.170312,-0.000800625
-1.247000e-03,-0.0109375,-0.015625,0.31875,-0.000770938
-1.246000e-03,-0.01625,0.0203125,0.31875,-0.000671563
-1.245000e-03,-0.02125,-0.015625,0.24375,-0.000691563
-1.244000e-03,-0.0165625,-0.0289063,0.190625,-0.000781875
-1.243000e-03,-0.0215625,0.0078125,0.267188,-0.00078125
-1.242000e-03,-0.03625,-0.065625,0.21875,-0.000816875
-1.241000e-03,-0.0109375,-0.0273438,0.270312,-0.00104094
-1.240000e-03,-0.0409375,0.0101562,0.192187,-0.00093625
-1.239000e-03,-0.0265625,0.0203125,0.242188,-0.00103188
-1.238000e-03,-0.0065625,-0.0164063,0.292188,-0.000986563
-1.237000e-03,-0.0059375,-0.0414063,0.26875,-0.00107625
-1.236000e-03,-0.0259375,-0.0273438,0.270312,-0.000885625
-1.235000e-03,-0.0209375,0.0226562,0.345313,-0.00107094
-1.234000e-03,-0.03125,-0.015625,0.19375,-0.00108688
-1.233000e-03,-0.0059375,0.009375,0.192187,-0.00102188
-1.232000e-03,-0.03625,0.009375,0.34375,-0.000870938
-1.231000e-03,-0.02625,-0.003125,0.142188,-0.000781563
-1.230000e-03,-0.016875,-0.0789063,0.215625,-0.000736875
-1.229000e-03,-0.02625,0.0210937,0.240625,-0.000731875
-1.228000e-03,-0.0165625,0.0078125,0.342187,-0.00075125
-1.227000e-03,-0.0259375,-0.0265625,0.295312,-0.000855938
-1.226000e-03,-0.0209375,-0.0398438,0.220313,-0.00043625
-1.225000e-03,-0.046875,-0.0664062,0.240625,-0.000556875
-1.224000e-03,-0.011875,-0.0921875,0.26875,-0.000651563
-1.223000e-03,-0.0415625,-0.015625,0.220313,-0.00073125
-1.222000e-03,-0.02125,-0.015625,0.24375,-0.000676563
-1.221000e-03,-0.02125,-0.078125,0.215625,-0.00055125
-1.220000e-03,-0.02125,-0.00234375,0.145312,-0.000906563
-1.219000e-03,0.0040625,-0.040625,0.245313,-0.000620938
-1.218000e-03,-0.0115625,-0.0289063,0.267188,-0.000826563
-1.217000e-03,-0.00625,0.0351562,0.39375,-0.00073125
-1.216000e-03,-0.02125,-0.028125,0.09375,-0.000875938
-1.215000e-03,-0.01125,-0.065625,0.270312,-0.000871563
-1.214000e-03,-0.0265625,-0.003125,0.242188,-0.000636563
-1.213000e-03,-0.0409375,-0.015625,0.170312,-0.000791563
-1.212000e-03,-0.02125,-0.040625,0.242188,-0.00079625
-1.211000e-03,-0.0165625,-0.028125,0.0703125,-0.000770938
-1.210000e-03,-0.01125,0.00859375,0.367188,-0.000791563
-1.209000e-03,-0.03125,0.0101562,0.321875,-0.000650938
-1.208000e-03,-0.0259375,-0.028125,0.14375,-0.000631563
-1.207000e-03,-0.036875,-0.0164063,0.26875,-0.000451875
-1.206000e-03,-0.02625,-0.00390625,0.21875,-0.000341563
-1.205000e-03,-0.04125,-0.0539062,0.19375,-0.00065625
-1.204000e-03,-0.0059375,-0.003125,0.271875,-0.000565938
-1.203000e-03,-0.0215625,-0.028125,0.220313,-0.000736563
-1.202000e-03,-0.0465625,-0.0289063,0.267188,-0.000626875
-1.201000e-03,-0.0315625,-0.003125,0.19375,-0.000786563
-1.200000e-03,-0.0359375,-0.0773437,0.24375,-0.000700938
-1.199000e-03,-0.03625,-0.0789063,0.242188,-0.00088625
-1.198000e-03,-0.04125,-0.0289063,0.217187,-0.000741563
-1.197000e-03,-0.0165625,-0.0671875,0.192187,-0.000836875
-1.196000e-03,0.0084375,-0.0414063,0.14375,-0.00109656
-1.195000e-03,-0.015625,-0.0382812,0.121875,-0.000855625
-1.194000e-03,-0.0259375,-0.003125,0.196875,-0.00092125
-1.193000e-03,-0.02125,0.0101562,0.267188,-0.00102156
-1.192000e-03,-0.02125,0.00859375,0.317187,-0.000911563
-1.191000e-03,-0.03625,-0.065625,0.167188,-0.00116125
-1.190000e-03,-0.02625,-0.0273438,0.26875,-0.00101125
-1.189000e-03,-0.03625,-0.015625,0.170312,-0.00099125
-1.188000e-03,-0.0109375,-0.00234375,0.245313,-0.000890938
-1.187000e-03,-0.0109375,-0.040625,0.245313,-0.00107625
-1.186000e-03,-0.021875,-0.0289063,0.292188,-0.000976563
-1.185000e-03,-0.02625,-0.040625,0.24375,-0.000931563
-1.184000e-03,-0.0209375,-0.003125,0.170312,-0.00093125
-1.183000e-03,-0.0159375,-0.028125,0.26875,-0.00103125
-1.182000e-03,-0.021875,-0.0289063,0.26875,-0.000591563
-1.181000e-03,-0.0115625,-0.040625,0.31875,-0.000805938
-1.180000e-03,-0.0215625,0.0203125,0.315625,-0.00066625
-1.179000e-03,-0.01625,-0.0273438,0.31875,-0.000815938
-1.178000e-03,-0.0065625,0.00859375,0.192187,-0.000766563
-1.177000e-03,-0.0009375,-0.028125,0.29375,-0.000605938
-1.176000e-03,-0.0015625,-0.0289063,0.24375,-0.000551563
-1.175000e-03,-0.0215625,-0.0421875,0.31875,-0.000551875
-1.174000e-03,-0.0165625,-0.015625,0.31875,-0.000705938
-1.173000e-03,-0.02125,0.0101562,0.24375,-0.000696563
-1.172000e-03,-0.030625,0.046875,0.270312,-0.000895625
-1.171000e-03,-0.01125,-0.0539062,0.26875,-0.00072125
-1.170000e-03,-0.0215625,-0.0171875,0.24375,-0.000766563
-1.169000e-03,-0.0215625,0.009375,0.242188,-0.000826563
-1.168000e-03,-0.03625,-0.028125,0.295312,-0.000865938
-1.167000e-03,-0.04625,-0.015625,0.19375,-0.00104125
-1.166000e-03,-0.04625,0.046875,0.29375,-0.00110656
-1.165000e-03,-0.0165625,0.0328125,0.167188,-0.000846563
-1.164000e-03,-0.0215625,-0.0289063,0.167188,-0.000961563
-1.163000e-03,-0.0309375,0.0234375,0.270312,-0.000895625
-1.162000e-03,-0.0209375,0.0109375,0.245313,-0.00110125
-1.161000e-03,-0.0415625,0.00859375,0.267188,-0.000876563
-1.160000e-03,-0.0415625,-0.0289063,0.21875,-0.00106625
-1.159000e-03,-0.01625,0.034375,0.19375,-0.000846563
-1.158000e-03,-0.01625,-0.003125,0.29375,-0.00067625
-1.157000e-03,-0.0259375,0.0226562,0.26875,-0.00084625
-1.156000e-03,-0.0259375,-0.0523438,0.19375,-0.00074125
-1.155000e-03,-0.02125,-0.0523438,0.21875,-0.000785938
-1.154000e-03,-0.0165625,0.059375,0.267188,-0.000581563
-1.153000e-03,-0.03125,-0.00390625,0.217187,-0.00082625
-1.152000e-03,-0.02125,-0.040625,0.245313,-0.00077625
-1.151000e-03,-0.05125,0.0226562,0.29375,-0.000911563
-1.150000e-03,-0.0365625,-0.0171875,0.190625,-0.000956875
-1.149000e-03,-0.0309375,-0.0015625,0.26875,-0.00088125
-1.148000e-03,-0.026875,0.021875,0.215625,-0.00105156
-1.147000e-03,-0.0165625,0.0210937,0.26875,-0.00087125
-1.146000e-03,-0.0115625,-0.0164063,0.242188,-0.00096125
-1.145000e-03,-0.0359375,-0.0148437,0.26875,-0.00085125
-1.144000e-03,-0.02625,-0.003125,0.34375,-0.00087625
-1.143000e-03,-0.011875,-0.015625,0.215625,-0.000941563
-1.142000e-03,-0.0059375,-0.0148437,0.220313,-0.00093625
-1.141000e-03,-0.02625,-0.003125,0.242188,-0.000831875
-1.140000e-03,-0.0259375,-0.003125,0.295312,-0.00111063
-1.139000e-03,-0.02125,-0.015625,0.19375,-0.00100625
-1.138000e-03,-0.031875,0.046875,0.240625,-0.00107156
-1.137000e-03,-0.0215625,-0.0289063,0.24375,-0.000881563
-1.136000e-03,-0.030625,0.021875,0.19375,-0.000946875
-1.135000e-03,-0.0265625,-0.015625,0.167188,-0.000941563
-1.134000e-03,-0.0165625,-0.0539062,0.292188,-0.00101125
-1.133000e-03,-0.01625,0.0078125,0.292188,-0.00103156
-1.132000e-03,-0.0115625,-0.053125,0.242188,-0.000801563
-1.131000e-03,-0.0359375,-0.0273438,0.345313,-0.000540938
-1.130000e-03,-0.04125,0.0460937,0.29375,-0.000560938
-1.129000e-03,-0.021875,-0.0414063,0.217187,-0.000731563
-1.128000e-03,-0.01625,0.009375,0.192187,-0.000731563
-1.127000e-03,-0.0215625,0.009375,0.167188,-0.00075625
-1.126000e-03,-0.02625,-0.040625,0.29375,-0.000756563
-1.125000e-03,-0.0309375,-0.0648438,0.21875,-0.00100156
-1.124000e-03,-0.02125,0.0585938,0.29375,-0.00077625
-1.123000e-03,-0.03125,0.009375,0.392188,-0.000810938
-1.122000e-03,-0.0315625,0.0460937,0.392188,-0.000926875
-1.121000e-03,-0.02125,-0.0539062,0.317187,-0.000926563
-1.120000e-03,-0.010625,-0.0898438,0.24375,-0.000975938
-1.119000e-03,-0.01625,-0.0289063,0.24375,-0.000725938
-1.118000e-03,-0.031875,-0.0414063,0.317187,-0.000676875
-1.117000e-03,-0.0309375,-0.0148437,0.245313,-0.000865938
-1.116000e-03,-0.02125,-0.0164063,0.29375,-0.000891563
-1.115000e-03,-0.01125,-0.0539062,0.34375,-0.000780938
-1.114000e-03,-0.011875,-0.0421875,0.190625,-0.000666875
-1.113000e-03,-0.0259375,-0.078125,0.295312,-0.000725938
-1.112000e-03,-0.02125,-0.0046875,0.317187,-0.000886563
-1.111000e-03,-0.0315625,0.00859375,0.31875,-0.000686563
-1.110000e-03,-0.0315625,-0.00390625,0.245313,-0.00064125
-1.109000e-03,-0.0215625,0.0210937,0.217187,-0.00051625
-1.108000e-03,-0.020625,-0.0148437,0.29375,-0.000720938
-1.107000e-03,-0.0159375,0.034375,0.220313,-0.00074625
-1.106000e-03,-0.03625,-0.053125,0.31875,-0.00075625
-1.105000e-03,-0.01125,-0.0164063,0.29375,-0.00101094
-1.104000e-03,-0.0315625,0.0210937,0.242188,-0.00088125
-1.103000e-03,-0.0215625,-0.028125,0.317187,-0.00105125
-1.102000e-03,-0.0265625,0.034375,0.245313,-0.00100625
-1.101000e-03,-0.0015625,-0.00390625,0.342187,-0.000691563
-1.100000e-03,-0.01625,-0.0289063,0.19375,-0.000686875
-1.099000e-03,-0.025625,-0.00234375,0.221875,-0.000830625
-1.098000e-03,-0.0059375,-0.0789063,0.21875,-0.00076125
-1.097000e-03,-0.0265625,-0.0414063,0.267188,-0.000851563
-1.096000e-03,-0.00625,-0.040625,0.392188,-0.00080125
-1.095000e-03,-0.01125,-0.0414063,0.19375,-0.00112625
-1.094000e-03,-0.02625,0.0476563,0.317187,-0.00108656
-1.093000e-03,-0.0109375,-0.028125,0.19375,-0.000895938
-1.092000e-03,-0.0165625,-0.00390625,0.267188,-0.00103125
-1.091000e-03,-0.02125,-0.053125,0.24375,-0.000701563
-1.090000e-03,-0.0215625,-0.053125,0.29375,-0.00074125
-1.089000e-03,-0.026875,0.009375,0.19375,-0.000661563
-1.088000e-03,-0.0209375,-0.0148437,0.295312,-0.000905938
-1.087000e-03,-0.00125,-0.003125,0.29375,-0.00080625
-1.086000e-03,-0.0165625,0.00859375,0.167188,-0.00107156
-1.085000e-03,-0.0359375,0.00859375,0.245313,-0.00100625
-1.084000e-03,-0.0309375,-0.0289063,0.24375,-0.00100656
-1.083000e-03,-0.02125,-0.015625,0.240625,-0.00112656
-1.082000e-03,-0.021875,0.059375,0.167188,-0.000951563
-1.081000e-03,-0.0009375,-0.0148437,0.11875,-0.000795938
-1.080000e-03,-0.031875,-0.0414063,0.29375,-0.00083125
